<?xml version="1.0" encoding="utf-8"?>
<svg version="1.1" xmlns="http://www.w3.org/2000/svg" xmlns:xlink="http://www.w3.org/1999/xlink" x="0px" y="0px" viewBox="0 0 32 32">
<path fill="#505050" d="M30.6,13.5H1.4C0.1,13.5,0,14.6,0,16s0.1,2.5,1.4,2.5h29.3c1.3,0,1.4-1.1,1.4-2.5S31.9,13.5,30.6,13.5z
	 M30.6,27H1.4C0.1,27,0,28.1,0,29.5S0.1,32,1.4,32h29.3c1.3,0,1.4-1.1,1.4-2.5S31.9,27,30.6,27z M1.4,5h29.3C31.9,5,32,3.9,32,2.5
	S31.9,0,30.6,0H1.4C0.1,0,0,1.1,0,2.5S0.1,5,1.4,5z"/>
</svg>
