<?xml version="1.0"?>
<svg width="102" height="111" xmlns="http://www.w3.org/2000/svg" xmlns:svg="http://www.w3.org/2000/svg" xmlns:xlink="http://www.w3.org/1999/xlink">
 <g class="layer">
  <title>Layer 1</title>
  <g id="svg_20">
   <defs transform="translate(0 -0.6)">
    <path d="m70.1,23.5l-0.8,0l0,-16.8c0.7,1.7 0.8,3.4 0.8,4.8l0,12zm-31.8,-6.7c1,0.3 2.1,0.5 3.3,0.6l0,-0.8c-1,-0.1 -2.1,-0.3 -3.1,-0.6c-1.3,-0.3 -2.5,-0.6 -3.7,-0.6c-0.6,0 -1.2,0.1 -1.7,0.3l0,0.9c0.4,-0.2 1,-0.3 1.7,-0.3c1.1,-0.1 2.3,0.2 3.5,0.5zm-9.7,-0.6c0.7,0 1.3,0.1 1.7,0.3l0,-0.9c-0.5,-0.2 -1.1,-0.3 -1.7,-0.3c-1.2,0 -2.4,0.3 -3.7,0.6c-1,0.3 -2,0.5 -3.1,0.6l0,0.8c1.1,-0.1 2.2,-0.3 3.3,-0.6c1.3,-0.2 2.4,-0.5 3.5,-0.5zm0,-2c0.7,0 1.3,0.2 1.7,0.3l0,-0.9c-0.5,-0.2 -1.1,-0.2 -1.7,-0.3c-1.2,0 -2.4,0.3 -3.7,0.6c-1,0.3 -2,0.5 -3.1,0.6l0,0.8c1.2,-0.1 2.2,-0.3 3.3,-0.6c1.3,-0.3 2.4,-0.6 3.5,-0.5zm0,4.1c0.7,0 1.3,0.1 1.7,0.3l0,-0.9c-0.5,-0.2 -1.1,-0.2 -1.7,-0.3c-1.2,0 -2.4,0.3 -3.7,0.6c-1,0.3 -2,0.5 -3.1,0.6l0,0.8c1.2,-0.1 2.2,-0.4 3.3,-0.6c1.3,-0.3 2.4,-0.6 3.5,-0.5zm0,-6.2c0.7,0 1.3,0.2 1.7,0.3l0,-0.9c-0.5,-0.2 -1.1,-0.3 -1.7,-0.3c-1.2,0 -2.4,0.3 -3.7,0.6c-1,0.3 -2,0.5 -3.1,0.6l0,0.8c1.1,-0.1 2.2,-0.3 3.3,-0.6c1.3,-0.2 2.4,-0.5 3.5,-0.5zm-5.4,61.2c-9.9,-16.3 -9.7,-32.2 -9.7,-34.2l0,-38.5l75,0l0,38.5c0,2 0.2,17.9 -9.7,34.2c-8.8,14.8 -22.1,21.3 -27.8,23.3c-5.6,-2 -18.9,-8.5 -27.8,-23.3zm20,-3l-2,-1.6l1.1,-2.4l-2.6,0.5l-1.1,-2.3l-1.2,2.3l-2.5,-0.5l1.1,2.4l-2,1.6l2.5,0.6l0,2.6l2.1,-1.6l2,1.6l0,-2.6l2.6,-0.6zm10.7,16.3l2.5,-1.2l-2.5,-1.1l0.9,-2.6l-2.6,1l-1.1,-2.5l-1.1,2.4l-2.6,-1l1,2.6l-2.5,1.1l2.5,1.2l-1,2.6l2.6,-1l1.1,2.5l1.1,-2.5l2.6,1l-0.9,-2.5zm-5.5,-29.8l-2,1.7l2.5,0.6l0,2.6l2,-1.6l2.1,1.6l0.1,-2.6l2.5,-0.6l-2,-1.7l1.1,-2.4l-2.6,0.5l-1.1,-2.3l-1.1,2.3l-2.6,-0.5l1.1,2.4zm8.8,16.4l1.5,-1.6l-2.2,-0.4l-1,-2l-1,2l-2.2,0.4l1.6,1.6l-0.4,2.2l2,-1l2,1l-0.3,-2.2zm7.4,-7.9l1.2,-2l-2.3,0l-1.1,-2l-1.1,2l-2.3,0l1.2,2l-1.2,2l2.3,0l1.1,2l1.1,-2l2.3,0l-1.2,-2zm17.6,-48.2c-0.6,0.3 -1.1,0.8 -1.4,1.4c-0.3,0.5 -0.4,1 -0.4,1.5c0,0.1 0,0.2 0,0.4c0.3,-0.2 0.6,-0.4 0.9,-0.6c0.2,-0.2 0.4,-0.5 0.6,-0.7c0.2,-0.4 0.3,-1 0.3,-1.5c0,-0.2 0,-0.4 0,-0.5zm-7.8,11.5c0.6,0.3 1.3,0.4 2,0.3c0.7,-0.1 1.2,-0.4 1.7,-0.9c-0.6,-0.3 -1.2,-0.4 -1.9,-0.3c-0.7,0.1 -1.3,0.5 -1.8,0.9zm0,-1.1c0.3,-0.5 0.5,-1.1 0.5,-1.7c0,-0.1 0,-0.1 0,-0.2c-0.6,0.3 -1.1,0.7 -1.5,1.2l0,0c-0.3,0.5 -0.5,1.1 -0.5,1.7c0,0.1 0,0.1 0,0.2c0.7,-0.2 1.2,-0.6 1.5,-1.2zm0.8,-0.2c0,0 0,0.1 0,0c0.2,0 0.3,0 0.4,-0.1c0.4,-0.3 0.6,-0.7 0.8,-1.2c0.1,-0.3 0.2,-0.7 0.2,-1c0,-0.3 -0.1,-0.6 -0.2,-0.9c-0.4,0.3 -0.7,0.6 -0.9,1c0,0.9 -0.1,1.6 -0.3,2.2zm1.9,-1.6c0,0.1 0,0.1 0,0c0.2,0 0.3,-0.1 0.4,-0.2c0.3,-0.4 0.4,-0.8 0.5,-1.3c0,-0.1 0,-0.2 0,-0.3c0,-0.5 -0.2,-1.1 -0.5,-1.6c-0.3,0.4 -0.6,0.8 -0.7,1.2c0.3,0.9 0.4,1.5 0.3,2.2zm1.4,-2c0,0.1 0,0.1 0,0c0.2,0 0.3,-0.1 0.4,-0.3c0.1,-0.3 0.2,-0.6 0.2,-1c0,-0.1 0,-0.3 0,-0.4c-0.1,-0.6 -0.4,-1.2 -0.9,-1.7c-0.2,0.4 -0.3,0.9 -0.3,1.3c0.3,0.8 0.5,1.4 0.6,2.1zm1,-2.3c0,0.1 0,0.1 0,0c0.2,-0.1 0.2,-0.2 0.3,-0.4c0,-0.1 0,-0.1 0,-0.2c0,-0.4 -0.1,-0.8 -0.2,-1.2c-0.2,-0.6 -0.7,-1 -1.3,-1.4c-0.1,0.2 -0.1,0.5 -0.1,0.7c0,0.2 0,0.4 0.1,0.6c0.6,0.7 1,1.3 1.2,1.9zm0.4,-2.4c0,0 0,0 0,0c0.1,-0.1 0.2,-0.3 0.2,-0.4c-0.1,-0.5 -0.2,-0.9 -0.5,-1.3c-0.4,-0.5 -0.9,-0.9 -1.6,-1.1c0,0.5 0.1,1 0.3,1.4c0.7,0.3 1.2,0.8 1.6,1.4zm-0.1,-2.9c-0.2,-0.5 -0.4,-0.9 -0.8,-1.2c-0.5,-0.4 -1,-0.6 -1.7,-0.7c0.1,0.5 0.3,0.9 0.6,1.2c0.7,0.2 1.3,0.6 1.8,1c0,0 0.1,0 0.1,0c0,0 0,-0.1 0,-0.3zm-0.8,-1.9c0,-0.2 -0.1,-0.3 -0.1,-0.5c-0.3,-0.4 -0.6,-0.7 -1,-0.9c-0.6,-0.3 -1.2,-0.4 -1.9,-0.3c0.3,0.4 0.5,0.8 0.9,1.1c0.8,0 1.5,0.2 2.1,0.6c0,0 0,0 0,0zm-0.4,12.8c0.6,-0.2 1.1,-0.7 1.5,-1.3c-0.7,-0.1 -1.4,-0.1 -2,0.1c-0.5,0.2 -1,0.7 -1.4,1.2c0.3,0 0.7,0.1 1,0.2c0.3,0 0.6,0 0.9,-0.2zm1.7,-2.3c0.5,-0.4 0.9,-1 1.2,-1.7c-0.7,0 -1.4,0.2 -1.9,0.6l0,0c-0.5,0.4 -0.9,0.9 -1.1,1.5c0.3,-0.1 0.7,-0.1 1,-0.1c0.3,0 0.6,-0.1 0.8,-0.3zm1.8,-4.6c-0.6,0.2 -1.2,0.5 -1.7,1c-0.4,0.5 -0.6,1.1 -0.7,1.8c0.3,-0.1 0.6,-0.2 1,-0.3c0.3,-0.2 0.5,-0.4 0.7,-0.6c0.5,-0.5 0.7,-1.2 0.7,-1.9zm-0.6,-6c-0.5,0.5 -0.9,1 -1.1,1.7c-0.1,0.2 -0.1,0.5 -0.1,0.8c0,0.4 0.1,0.8 0.2,1.1c0.2,-0.3 0.5,-0.5 0.7,-0.7c0.2,-0.3 0.3,-0.6 0.4,-0.9c0.1,-0.2 0.1,-0.5 0.1,-0.7c0.1,-0.4 0,-0.8 -0.2,-1.3zm-2,-0.8c0,0.6 0.2,1.2 0.6,1.8c0.1,-0.3 0.3,-0.6 0.5,-0.9c0.1,-0.3 0.2,-0.6 0.2,-0.9c0,0 0,0 0,0c0,-0.7 -0.2,-1.3 -0.6,-1.9c-0.4,0.6 -0.7,1.2 -0.7,1.9c0,0 0,0 0,0zm-1.6,-2.9c0,0.2 0,0.5 0.1,0.7c0.1,0.6 0.5,1.1 1,1.6c0.1,-0.3 0.2,-0.7 0.3,-1c0,-0.1 0,-0.1 0,-0.2c0,-0.2 0,-0.4 -0.1,-0.7c-0.2,-0.6 -0.5,-1.2 -1.1,-1.7c-0.1,0.4 -0.2,0.8 -0.2,1.3zm-0.3,1.2c-0.4,-0.3 -0.8,-0.5 -1.2,-0.7c-0.6,-0.2 -1.3,-0.1 -1.9,0.1c0.3,0.4 0.7,0.7 1.1,0.9c0.7,-0.1 1.5,-0.1 2.1,0.1c0,0 0.1,0 0.1,0c-0.1,-0.1 -0.1,-0.2 -0.2,-0.4zm-1.9,-3.8c0,0.5 0.1,1 0.3,1.5c0.3,0.6 0.8,1 1.4,1.3c0,-0.4 0,-0.7 0.1,-1.1c-0.1,-0.3 -0.1,-0.6 -0.3,-0.8c-0.3,-0.6 -0.8,-1.1 -1.4,-1.4c-0.1,0.2 -0.1,0.3 -0.1,0.5zm-2.6,0.2c0.2,0.7 0.6,1.3 1.1,1.6c0.5,0.3 1.1,0.5 1.7,0.6c-0.2,-0.2 -0.3,-0.4 -0.5,-0.7l0,0c-0.1,-0.2 -0.2,-0.5 -0.3,-0.7c-0.1,-0.1 -0.1,-0.1 -0.2,-0.2c-0.4,-0.4 -1,-0.6 -1.8,-0.6zm-7.8,15.7c0,0.5 0.4,1.1 1.3,1.1l1.7,0c-0.2,0.6 -0.4,1.5 -0.4,2.4c0,1.2 0.2,2.2 0.6,2.9c-1.3,-0.2 -2.2,-0.5 -3.1,-1l-0.1,0l-0.2,0.5l0.1,0c0.8,0.4 1.5,0.6 2.4,0.9c0,0 0.7,0.1 1.2,0.2c-0.1,0.1 -0.2,0.3 -0.2,0.5c0,0.4 0.3,0.7 0.7,0.7c0.4,0 0.7,-0.3 0.7,-0.7c0,-0.2 -0.1,-0.4 -0.2,-0.5c0.5,-0.1 1.1,-0.2 1.1,-0.2c0.9,-0.2 1.7,-0.4 2.5,-0.9l0.1,0l-0.2,-0.6l-0.1,0c-0.9,0.5 -1.8,0.8 -3.1,1c0.3,-0.7 0.6,-1.7 0.6,-2.9c0,-0.9 -0.1,-1.8 -0.4,-2.4l1.7,0c0.9,0 1.3,-0.5 1.3,-1.1c0,-0.4 -0.3,-0.8 -0.8,-0.8c-0.4,0 -0.8,0.3 -0.8,0.8c0,0.1 0,0.2 0.1,0.3c0.1,0.1 0.1,0.3 -0.2,0.3l-1,0l0,-12.7c0,-1.7 -0.1,-3.8 -1.1,-5.8l-0.3,-0.6l-0.3,0.6c-1,2 -1.1,4.1 -1.1,5.8l0,12.7l-1,0c-0.3,0 -0.2,-0.2 -0.2,-0.3c0,-0.1 0.1,-0.2 0.1,-0.3c0,-0.4 -0.3,-0.8 -0.7,-0.8c-0.3,0.1 -0.7,0.5 -0.7,0.9zm-2.1,1.5c-0.2,-0.4 -0.5,-0.7 -0.9,-1c-0.1,0.3 -0.2,0.6 -0.2,0.9c0,0.3 0.1,0.7 0.2,1c0.1,0.5 0.4,0.8 0.7,1.2c0.1,0 0.3,0.1 0.4,0.1c0,0 0,-0.1 0,-0.1c-0.2,-0.6 -0.3,-1.3 -0.2,-2.1zm-0.6,-12.7c-0.6,-0.1 -1.3,0 -1.9,0.3c-0.4,0.2 -0.8,0.5 -1,0.9c0,0.2 0,0.3 -0.1,0.5c0,0 0.1,0 0.1,0c0.6,-0.4 1.3,-0.6 2.1,-0.6c0.3,-0.3 0.6,-0.7 0.8,-1.1zm-0.7,11.1c-0.1,-0.4 -0.4,-0.8 -0.7,-1.2c-0.3,0.5 -0.5,1 -0.5,1.6c0,0.1 0,0.2 0,0.3c0,0.5 0.2,0.9 0.5,1.3c0.1,0.1 0.3,0.2 0.4,0.3c0,0 0,-0.1 0,-0.1c-0.1,-0.8 0,-1.4 0.3,-2.2zm-2.3,-1.1c0,0.3 0.1,0.6 0.2,1c0.1,0.1 0.2,0.2 0.3,0.3c0,0 0,-0.1 0.1,-0.1c0.1,-0.7 0.3,-1.4 0.7,-2c0,-0.5 -0.2,-0.9 -0.4,-1.3c-0.5,0.5 -0.8,1.1 -0.9,1.7c0,0.1 0,0.3 0,0.4zm0.8,-2.8c0.1,-0.2 0.1,-0.4 0.1,-0.6c0,-0.2 -0.1,-0.5 -0.1,-0.7c-0.6,0.4 -1,0.8 -1.3,1.4c-0.2,0.4 -0.2,0.8 -0.2,1.2c0,0.1 0,0.1 0,0.2c0.1,0.1 0.2,0.3 0.2,0.4c0,0 0.1,0 0.1,-0.1c0.2,-0.7 0.6,-1.3 1.2,-1.8zm-1.5,-3.6c0,0.1 0,0.3 0,0.4c0,0 0.1,0 0.1,0c0.5,-0.5 1.1,-0.8 1.8,-1c0.3,-0.4 0.5,-0.8 0.6,-1.2c-0.7,0.1 -1.3,0.3 -1.8,0.7c-0.3,0.2 -0.6,0.7 -0.7,1.1zm-0.3,2.5c0.1,0.1 0.1,0.3 0.1,0.5c0,0 0,0 0.1,0c0.4,-0.6 0.9,-1.1 1.6,-1.4c0.2,-0.4 0.3,-0.9 0.3,-1.4c-0.7,0.2 -1.2,0.6 -1.6,1.1c-0.3,0.3 -0.5,0.7 -0.5,1.2zm-0.4,2.5c-0.4,-0.5 -1,-0.8 -1.7,-1c0.1,0.7 0.3,1.3 0.7,1.8c0.2,0.2 0.5,0.4 0.7,0.6c0.3,0.1 0.6,0.2 0.9,0.3c0,-0.6 -0.2,-1.2 -0.6,-1.7zm-1,1.9c0.2,0.7 0.6,1.3 1.1,1.7c0.2,0.2 0.5,0.3 0.8,0.4c0.4,0 0.7,0 1,0.1c-0.3,-0.6 -0.6,-1.2 -1.1,-1.5l0,0c-0.4,-0.5 -1.1,-0.7 -1.8,-0.7zm1.4,2.8c0.4,0.6 0.8,1 1.5,1.3c0.3,0.1 0.6,0.2 0.9,0.2c0.3,-0.1 0.7,-0.1 1,-0.2c-0.4,-0.5 -0.9,-1 -1.4,-1.2c-0.6,-0.3 -1.3,-0.3 -2,-0.1zm2,2.3c0.5,0.5 1.1,0.8 1.8,0.9c0.6,0.1 1.3,-0.1 1.9,-0.3c-0.5,-0.5 -1.1,-0.8 -1.8,-0.9l0,0c-0.6,-0.2 -1.3,0 -1.9,0.3zm5.2,0.6c0,-0.1 0,-0.1 0,-0.2c0,-0.6 -0.2,-1.2 -0.5,-1.7l0,0c-0.4,-0.5 -0.9,-0.9 -1.5,-1.2c0,0.1 0,0.1 0,0.2c0,0.6 0.2,1.2 0.5,1.7c0.3,0.6 0.8,1 1.5,1.2zm-2.6,-19.2c-0.1,0.2 -0.3,0.5 -0.5,0.7c0.6,0 1.2,-0.2 1.7,-0.6c0.5,-0.4 0.9,-1 1.2,-1.6c-0.7,0 -1.4,0.2 -1.9,0.6c-0.1,0.1 -0.1,0.1 -0.2,0.2c-0.1,0.2 -0.2,0.5 -0.3,0.7l0,0zm-2,0c0.1,0.4 0.1,0.7 0.1,1.1c0.6,-0.3 1.1,-0.8 1.3,-1.3c0.3,-0.5 0.4,-1 0.4,-1.5c0,-0.2 0,-0.3 -0.1,-0.5c-0.6,0.3 -1.1,0.8 -1.4,1.4c-0.1,0.3 -0.2,0.5 -0.3,0.8zm-0.3,2.6c0,0 0.1,0 0,0c0.8,-0.2 1.5,-0.2 2.2,-0.1c0.4,-0.2 0.8,-0.5 1.1,-0.9c-0.6,-0.2 -1.3,-0.3 -1.9,-0.1c-0.5,0.1 -0.9,0.3 -1.2,0.7c-0.1,0.1 -0.1,0.2 -0.2,0.4zm-1.6,-0.6c0,0.1 0,0.1 0,0.2c0.2,0.3 0.3,0.7 0.3,1c0.5,-0.5 0.8,-1 1,-1.6c0.1,-0.2 0.1,-0.5 0.1,-0.7c0,-0.4 -0.1,-0.9 -0.3,-1.3c-0.5,0.5 -0.9,1 -1.1,1.7c0.1,0.2 0,0.4 0,0.7zm-1.4,1.8c0,0.3 0.1,0.6 0.2,0.9c0.2,0.3 0.4,0.6 0.5,0.9c0.3,-0.5 0.6,-1.1 0.6,-1.8c0,0 0,0 0,0c0,-0.6 -0.3,-1.3 -0.6,-1.9c-0.4,0.6 -0.7,1.2 -0.7,1.9c0,0 0,0 0,0zm-1,2.1c0,0.3 0,0.5 0.1,0.7c0.1,0.3 0.2,0.6 0.4,0.9c0.3,0.2 0.5,0.4 0.7,0.7c0.1,-0.4 0.2,-0.8 0.2,-1.1c0,-0.3 0,-0.5 -0.1,-0.8c-0.2,-0.6 -0.6,-1.2 -1.1,-1.7c-0.1,0.4 -0.2,0.9 -0.2,1.3zm-0.5,2.1c0,0.5 0.1,1.1 0.4,1.5c0.1,0.3 0.3,0.5 0.6,0.7c0.3,0.1 0.6,0.3 0.9,0.5c0,-0.1 0,-0.3 0,-0.4c0,-0.5 -0.1,-1 -0.4,-1.5c-0.3,-0.6 -0.8,-1.1 -1.5,-1.4c0,0.3 0,0.5 0,0.6zm-24.3,7.9c0.7,-0.5 1.6,-0.7 2.7,-0.7c1.2,0 2.4,0.2 3.7,0.6c1.3,0.3 2.8,0.7 4.2,0.6c0,-0.7 0,-14.7 0,-17.3c0,-0.2 0,-0.3 0,-0.4c-1.5,0.1 -3,-0.3 -4.4,-0.6c-1.2,-0.3 -2.4,-0.6 -3.4,-0.5c-1.5,0 -2.3,0.5 -2.8,0.9l0,0.6l0,16.8zm-11.3,0.4c1.4,0.1 2.8,-0.2 4.2,-0.6c1.3,-0.3 2.5,-0.6 3.7,-0.6c1.1,0 2,0.3 2.7,0.7l0,-16.7l0,-0.6c-0.5,-0.5 -1.3,-0.9 -2.8,-0.9c-1.1,0 -2.2,0.2 -3.4,0.5c-1.4,0.4 -2.8,0.7 -4.4,0.6c0,0.1 0,0.2 0,0.4c0,2.5 0,16.6 0,17.2zm-2.7,2.8c0,0 11.7,0 12.1,0c0.3,0.5 0.8,0.9 1.5,0.9c0.7,0 1.3,-0.4 1.5,-0.9c0.4,0 12.1,0 12.1,0l0,-20l-0.4,0l-1.1,0l0.1,0.4c0,0 0,0.1 0,0.1l0,18.1c-0.9,0 -10.7,0 -11.2,0c-0.2,0.3 -0.4,0.4 -1,0.4c-0.5,0 -0.7,-0.1 -0.9,-0.4c-0.5,0 -9.5,0 -11.3,0l0,-18.1c0,0 0,-0.1 0,-0.1l0.1,-0.4l-1.5,0l0,20zm4.4,40.1l28.5,-25.6l28.6,25.7c1.9,-3.6 3.2,-7.1 4.3,-10.4l-32.9,-29.6l-32.8,29.5c1,3.3 2.4,6.8 4.3,10.4zm6.1,-48.4c0.7,0 1.3,0.1 1.7,0.3l0,-0.9c-0.5,-0.2 -1.1,-0.2 -1.7,-0.3c-1.2,0 -2.4,0.3 -3.7,0.6c-1,0.3 -2,0.5 -3.1,0.6l0,0.8c1.1,-0.1 2.2,-0.4 3.3,-0.6c1.3,-0.2 2.4,-0.5 3.5,-0.5zm0,2.1c0.7,0 1.3,0.1 1.7,0.3l0,-0.9c-0.5,-0.2 -1.1,-0.3 -1.7,-0.3c-1.2,0 -2.4,0.3 -3.7,0.6c-1,0.3 -2,0.5 -3.1,0.6l0,0.8c1.1,-0.1 2.2,-0.4 3.3,-0.6c1.3,-0.3 2.4,-0.6 3.5,-0.5zm0,-12.3c0.7,0 1.3,0.2 1.7,0.3l0,-0.9c-0.5,-0.2 -1.1,-0.2 -1.7,-0.3c-1.2,0 -2.4,0.3 -3.7,0.6c-1,0.3 -2,0.5 -3.1,0.6l0,0.8c1.1,-0.1 2.2,-0.3 3.3,-0.6c1.3,-0.3 2.4,-0.5 3.5,-0.5zm9.7,4.7c1,0.3 2.1,0.5 3.3,0.6l0,-0.8c-1,-0.1 -2.1,-0.3 -3.1,-0.6c-1.3,-0.3 -2.5,-0.6 -3.7,-0.6c-0.6,0 -1.2,0.1 -1.7,0.3l0,0.9c0.4,-0.2 1,-0.3 1.7,-0.3c1.1,-0.2 2.3,0.1 3.5,0.5zm0,-4.1c1,0.3 2.1,0.5 3.3,0.6l0,-0.8c-1,-0.1 -2.1,-0.3 -3.1,-0.6c-1.3,-0.3 -2.5,-0.6 -3.7,-0.6c-0.6,0 -1.2,0.1 -1.7,0.3l0,0.9c0.4,-0.2 1,-0.3 1.7,-0.3c1.1,-0.1 2.3,0.1 3.5,0.5zm0,8.1c1,0.2 2.2,0.5 3.3,0.6l0,-0.8c-1.1,-0.1 -2.1,-0.3 -3.1,-0.6c-1.3,-0.3 -2.5,-0.6 -3.6,-0.6c-0.6,0 -1.2,0.1 -1.7,0.2l0,0.9c0.4,-0.2 1,-0.3 1.7,-0.3c1,0 2.2,0.3 3.4,0.6zm0,-6.1c1,0.3 2.1,0.5 3.3,0.6l0,-0.8c-1,-0.1 -2.1,-0.3 -3.1,-0.6c-1.3,-0.3 -2.5,-0.6 -3.7,-0.6c-0.6,0 -1.2,0.1 -1.7,0.3l0,0.9c0.4,-0.2 1,-0.3 1.7,-0.3c1.1,-0.1 2.3,0.2 3.5,0.5zm0,8.2c1,0.3 2.1,0.5 3.3,0.6l0,-0.8c-1,-0.1 -2.1,-0.4 -3.1,-0.6c-1.3,-0.3 -2.5,-0.6 -3.7,-0.6c-0.6,0 -1.2,0.1 -1.7,0.3l0,0.9c0.4,-0.2 1,-0.3 1.7,-0.3c1.1,-0.1 2.3,0.2 3.5,0.5zm0,2c1,0.3 2.1,0.5 3.3,0.6l0,-0.8c-1,-0.1 -2.1,-0.3 -3.1,-0.6c-1.3,-0.3 -2.5,-0.6 -3.7,-0.6c-0.6,0 -1.2,0.1 -1.7,0.3l0,0.9c0.4,-0.2 1,-0.3 1.7,-0.3c1.1,-0.1 2.3,0.2 3.5,0.5zm63.8,42.5l-0.2,0.5c-1.9,6.3 -5.1,12.6 -7.4,16.7l-0.5,0.8l-3.3,-3c-0.1,0.2 -0.3,0.5 -0.4,0.7c-8.4,13.4 -20.2,23.1 -34.3,28.3l-5,1.8l-5,-1.8c-14,-5.1 -25.9,-14.9 -34.2,-28.3c-0.1,-0.2 -0.2,-0.5 -0.4,-0.7l-3.4,3l-0.5,-0.9c-2.3,-4.2 -5.4,-10.5 -7.4,-16.7l-0.1,-0.4l8.1,-7.3l1,-0.9l0.4,1.2c0.4,1.5 0.9,2.9 1.4,4.3l2.3,-2.1l0.9,-0.8l0.4,1.2c1.7,5.1 4,9.9 6.7,14.2c7.1,11.3 17,19.5 28.7,23.8c0,0 0.8,0.3 1.2,0.4c0.4,-0.1 1.2,-0.4 1.2,-0.4c11.7,-4.3 21.7,-12.5 28.7,-23.8c2.7,-4.3 5,-9.1 6.7,-14.2l0.4,-1.2l3.2,2.9c0.5,-1.4 1,-2.8 1.4,-4.3l0.4,-1.2l9,8.2zm-95.4,12l-1.5,-9.5l4.4,-4c-0.5,-1.2 -0.9,-2.5 -1.3,-3.8c-1.3,1.2 -5.8,5.2 -6.4,5.8c1.3,4 3,8 4.8,11.5zm3.9,1.6c-1,-1.7 -2,-3.5 -2.8,-5.3l1.1,6.9c0.3,-0.4 1,-1 1.7,-1.6zm83.7,-5.3c-0.8,1.8 -1.8,3.6 -2.8,5.3c0,0 0,0 0,0c0.7,0.6 1.3,1.2 1.7,1.6l1.1,-6.9zm0.6,-5.5c-0.7,-0.6 -5,-4.5 -6.2,-5.6c-1.7,4.8 -3.8,9.4 -6.4,13.5c-7.2,11.6 -17.4,20 -29.5,24.5l-1.8,0.6c0,0 -1.7,-0.6 -1.7,-0.6c-12.1,-4.4 -22.2,-12.9 -29.5,-24.5c-2.6,-4.1 -4.7,-8.7 -6.4,-13.5c-1.3,1.1 -5.5,5 -6.2,5.6c1.6,4.2 3.7,8.3 6,12c8.2,13.1 19.8,22.6 33.5,27.6c0,0 4,1.4 4.4,1.6c0.5,-0.2 4.5,-1.6 4.5,-1.6c13.7,-5 25.3,-14.6 33.5,-27.6c2.1,-3.6 4.2,-7.7 5.8,-12zm5.3,-2.4c-0.6,-0.6 -5.1,-4.6 -6.4,-5.8c-0.4,1.3 -0.8,2.6 -1.3,3.8l4.4,4l-1.5,9.6c1.7,-3.5 3.5,-7.5 4.8,-11.6zm-86.2,12.2l0.1,0.4l-0.3,0.2c-0.2,-0.3 -0.3,-0.6 -0.5,-1c-0.2,-0.3 -0.4,-0.6 -0.6,-1l0.3,-0.1l0.3,0.3c0.3,-0.3 0.8,-0.7 1,-1.1l-0.7,-1.3l-1.4,0.3l0.1,0.4l-0.2,0.1c-0.1,-0.3 -0.3,-0.5 -0.4,-0.8c-0.1,-0.2 -0.2,-0.4 -0.4,-0.7l0.3,-0.1l0.3,0.3c1,0 3.1,-0.4 4.4,-0.6c0.2,0.3 0.5,0.5 0.7,0.7l0.1,0.4l-1.3,1.6c-0.7,0.7 -1.5,1.7 -1.8,2zm0.8,-2.7l1.2,-1.3l0,0l-1.8,0.4l0.6,0.9zm7.3,7.4l0.2,-0.2c-0.2,-0.2 -0.3,-0.4 -0.5,-0.7c-0.2,-0.2 -0.3,-0.5 -0.5,-0.7l-0.3,0.2l0.2,0.4c-0.7,0.5 -2.3,1.8 -2.3,1.8l0,0c0.4,-1.2 0.9,-2.6 1.4,-3.8c-0.2,-0.2 -0.3,-0.4 -0.5,-0.6c-0.1,-0.2 -0.3,-0.4 -0.4,-0.6l-0.2,0.2l0.2,0.4c-0.3,0.3 -0.6,0.5 -1,0.8l-1.1,0.8c-0.4,0.3 -0.7,0.5 -1.1,0.7l-0.3,-0.3l-0.2,0.2c0.2,0.2 0.3,0.4 0.5,0.7c0.2,0.2 0.3,0.5 0.5,0.7l0.2,-0.2l-0.3,-0.5c0.7,-0.5 1.6,-1.2 2.4,-1.8l0,0c-0.5,1.2 -0.9,2.5 -1.4,3.9c0.1,0.1 0.2,0.3 0.3,0.4c0.1,0.1 0.2,0.3 0.3,0.4c0.4,-0.3 0.8,-0.7 1.4,-1.1l1.1,-0.8c0.4,-0.3 0.8,-0.5 1.1,-0.7l0.3,0.4zm0.4,3.7c-1.1,1 -1,2.5 -0.1,3.4c0.6,0.6 1.2,1 2.3,1.1l0.1,-0.6c-0.6,-0.1 -1.1,-0.3 -1.4,-0.7c-0.7,-0.7 -0.7,-1.7 0.1,-2.5c0.8,-0.8 1.7,-0.5 2.2,0.1c0.3,0.3 0.5,0.7 0.5,1.1l-0.2,0.4l0.2,0.3c0.3,-0.2 0.7,-0.5 1,-0.6c-0.2,-0.6 -0.5,-1 -0.9,-1.5c-1.1,-1.3 -2.7,-1.5 -3.8,-0.5zm9.7,9.2c-0.9,1.1 -2.3,1.2 -3.7,0.1c-1.3,-1.1 -1.5,-2.4 -0.5,-3.7c0.9,-1.1 2.4,-1.2 3.7,-0.1c1.3,1.1 1.5,2.5 0.5,3.7zm-1,-3.1c-0.7,-0.6 -1.6,-0.3 -2.3,0.4c-0.7,0.8 -0.7,1.7 0,2.3c0.7,0.6 1.6,0.3 2.3,-0.4c0.6,-0.8 0.7,-1.8 0,-2.3zm8,6.4c-0.3,0.6 -1,0.7 -1.7,0.4c0.1,0.5 0.3,2.2 0.4,2.5l0.1,0.2l-0.2,0.3c-0.4,-0.3 -0.9,-0.5 -1.3,-0.7c0,-0.8 -0.1,-2 -0.2,-2.7l-0.3,-0.2l-0.2,0.4c-0.3,0.4 -0.5,0.8 -0.6,1.1l0.3,0.3l-0.2,0.3c-0.3,-0.2 -0.6,-0.4 -0.9,-0.6c-0.3,-0.2 -0.6,-0.4 -1,-0.6l0.2,-0.3l0.4,0.2c0.3,-0.3 0.5,-0.7 0.8,-1.1l0.7,-1.2c0.3,-0.4 0.5,-0.8 0.7,-1.1l-0.3,-0.3l0.2,-0.3c0.2,0.2 0.5,0.3 0.7,0.5c0.3,0.2 0.6,0.3 0.9,0.5c0.3,0.2 0.6,0.3 0.9,0.5c1,0.6 1,1.3 0.6,1.9zm-1.5,-1.7c-0.3,-0.2 -0.4,-0.2 -0.6,-0.3c-0.1,0.2 -0.3,0.5 -0.5,0.8l-0.2,0.3c0.1,0.1 0.2,0.2 0.3,0.3c0.6,0.4 1.1,0.4 1.4,-0.1c0.2,-0.4 0.1,-0.7 -0.4,-1zm7.6,5.4c-0.1,0.9 -0.2,2.2 -0.2,2.7l0.3,0.2l-0.1,0.3c-0.3,-0.2 -0.7,-0.3 -1,-0.5c-0.3,-0.2 -0.7,-0.3 -1,-0.4l0.1,-0.3l0.4,0.1c0.1,-0.4 0.2,-1 0.2,-1.4l-1.4,-0.6l-0.9,1.1l0.3,0.2l-0.1,0.3c-0.3,-0.1 -0.6,-0.3 -0.8,-0.4c-0.2,-0.1 -0.5,-0.2 -0.7,-0.3l0.1,-0.3l0.4,0.1c0.8,-0.6 2.2,-2.1 3.2,-3.2c0.4,0.1 0.7,0.1 1,0.2l0.4,0.3l-0.2,1.9zm-1,-1.8l0,0l-1.2,1.4l1,0.5l0.2,-1.9zm14.7,3.5c-0.2,-0.4 -0.4,-0.7 -0.6,-1.2l-0.5,-1.2c-0.2,-0.5 -0.4,-0.8 -0.5,-1.2l0.4,-0.2l-0.1,-0.3c-0.3,0.2 -0.7,0.3 -1,0.5c-0.3,0.1 -0.7,0.3 -1,0.4l0.1,0.3l0.4,-0.1c0.2,0.4 0.4,0.7 0.6,1.2l0.5,1.2c0.2,0.5 0.3,0.8 0.5,1.2l-0.4,0.2l0.1,0.3c0.3,-0.2 0.7,-0.3 1,-0.5c0.3,-0.1 0.7,-0.3 1,-0.4l-0.1,-0.3l-0.4,0.1zm8.6,-4.6c-0.2,-0.3 -0.5,-0.7 -0.7,-1.1l-0.7,-1.2c-0.3,-0.4 -0.5,-0.8 -0.6,-1.1l0.3,-0.3l-0.2,-0.3c-0.3,0.2 -0.6,0.4 -0.8,0.5c-0.3,0.2 -0.6,0.3 -0.9,0.5c0.2,0.6 0.6,3 0.7,3.5c-0.5,-0.4 -2.3,-1.8 -2.7,-2.3c-0.3,0.2 -0.6,0.4 -0.8,0.5c-0.3,0.2 -0.6,0.3 -0.9,0.5l0.2,0.3l0.4,-0.1l0.3,0.6c0.3,0.6 1.4,2.4 1.6,2.9l-0.3,0.3l0.2,0.3c0.2,-0.1 0.5,-0.3 0.7,-0.4c0.2,-0.1 0.5,-0.3 0.7,-0.4l-0.2,-0.3l-0.4,0.2c-0.2,-0.3 -0.5,-0.7 -0.7,-1.1l-0.4,-0.7c-0.3,-0.6 -0.6,-1 -0.7,-1.2l0,0c1.7,1.5 2.7,2.2 3.1,2.6l0.6,-0.4l-0.8,-4l0,0c0.1,0.2 0.4,0.6 0.7,1.2l0.4,0.7c0.3,0.4 0.4,0.8 0.6,1.2l-0.3,0.3l0.1,0.3c0.3,-0.2 0.6,-0.4 0.9,-0.6c0.3,-0.2 0.7,-0.4 1,-0.6l-0.1,-0.3l-0.3,0zm4.6,-3.5c-0.3,-0.3 -0.6,-0.6 -0.9,-1l-0.6,-0.8c-0.3,-0.3 -0.6,-0.7 -0.8,-1.1c0.1,-0.1 0.2,-0.3 0.4,-0.4c0.5,-0.4 0.9,-0.3 1.2,0c0.3,0.4 0.4,0.9 -0.1,1.2c-0.1,0.1 -0.2,0.2 -0.3,0.2l0.2,0.6c0.2,-0.1 0.4,-0.3 0.6,-0.4c1,-0.8 1,-1.8 0.5,-2.5c-0.5,-0.6 -1.3,-0.7 -2.1,0c-0.2,0.2 -0.4,0.4 -0.7,0.6c-0.3,0.3 -0.6,0.5 -0.8,0.7c-0.2,0.2 -0.5,0.4 -0.8,0.6l0.2,0.2l0.4,-0.2c0.3,0.3 0.6,0.6 0.9,1l0.8,1.1c0.3,0.4 0.6,0.7 0.8,1l-0.3,0.3l0.2,0.2c0.3,-0.2 0.6,-0.5 0.9,-0.7c0.3,-0.2 0.6,-0.4 1,-0.8l-0.2,-0.2l-0.5,0.4zm7.9,-7.2l0.2,0.2c-0.3,0.2 -0.5,0.5 -0.8,0.8c-0.3,0.3 -0.5,0.6 -0.8,0.8l-0.2,-0.2l0.2,-0.3c-0.3,-0.2 -0.9,-0.5 -1.3,-0.7l-1.1,1.1l0.7,1.2l0.3,-0.2l0.2,0.2c-0.2,0.2 -0.4,0.4 -0.6,0.6c-0.2,0.2 -0.4,0.4 -0.5,0.6l-0.2,-0.2l0.2,-0.3c-0.3,-0.9 -1.3,-2.8 -1.9,-4.1c0.2,-0.3 0.4,-0.6 0.5,-0.9l0.4,-0.2l1.8,0.8c0.8,0.4 2,0.9 2.4,1l0.5,-0.2zm-3.1,0.3l-1.7,-0.8l0,0l0.9,1.6l0.8,-0.8zm8.2,-6.8l0.2,0.2c-0.3,0.4 -0.6,0.8 -0.8,1.2c-0.9,0 -2.1,-0.1 -2.8,-0.1l-0.2,0.3l0.3,0.3c0.4,0.3 0.7,0.5 1.1,0.7l0.3,-0.3l0.3,0.2c-0.2,0.3 -0.5,0.6 -0.7,0.9c-0.2,0.3 -0.4,0.6 -0.7,0.9l-0.3,-0.2l0.2,-0.4c-0.3,-0.3 -0.6,-0.5 -1,-0.8l-1.1,-0.8c-0.4,-0.3 -0.7,-0.5 -1.1,-0.8l-0.3,0.3l-0.3,-0.2c0.2,-0.2 0.4,-0.4 0.5,-0.7c0.2,-0.3 0.4,-0.5 0.6,-0.8c0.2,-0.3 0.4,-0.5 0.6,-0.8c0.8,-1.1 1.5,-1 2,-0.6c0.5,0.4 0.6,1.1 0.3,1.7c0.5,0 2.2,-0.1 2.5,-0.1l0.4,-0.1zm-3.7,-0.4c-0.3,-0.3 -0.7,-0.2 -1,0.3c-0.2,0.2 -0.3,0.4 -0.4,0.5c0.2,0.1 0.4,0.4 0.8,0.6l0.3,0.2c0.1,-0.1 0.2,-0.2 0.3,-0.3c0.4,-0.5 0.4,-0.9 0,-1.3zm7.1,-4.2c-0.9,1.5 -2.2,1.9 -3.5,1.1c-1.2,-0.7 -1.6,-2.1 -0.7,-3.6c0.9,-1.5 2.1,-1.9 3.5,-1.1c1.2,0.6 1.6,2.1 0.7,3.6zm-1.4,-2.5c-0.9,-0.5 -1.8,-0.4 -2.3,0.3c-0.5,0.8 -0.1,1.6 0.8,2.2c0.9,0.5 1.8,0.4 2.3,-0.3c0.5,-0.8 0.1,-1.7 -0.8,-2.2zm-36.2,28.3c-0.5,0 -1,0.5 -1,1.1c0,0.6 0.5,1.1 1,1.1c0.6,0 1.1,-0.5 1.1,-1.1c0,-0.6 -0.5,-1.1 -1.1,-1.1zm-39,-33.3c0.6,0 1.1,-0.5 1.1,-1c0,-0.6 -0.5,-1.1 -1.1,-1.1c-0.6,0 -1,0.5 -1,1.1c0,0.5 0.5,1 1,1zm78.2,0c0.6,0 1.1,-0.5 1.1,-1c0,-0.6 -0.5,-1.1 -1.1,-1.1c-0.5,0 -1,0.5 -1,1.1c-0.1,0.5 0.4,1 1,1z" id="SVGID_1_"/>
   </defs>
   <use id="svg_21" x="0" xlink:href="#SVGID_1_" y="-0.6"/>
   <clipPath id="SVGID_3_" transform="translate(0 -0.6)">
    <use id="svg_22" xlink:href="#SVGID_1_"/>
   </clipPath>
  </g>
 </g>
</svg>