<?xml version="1.0" encoding="UTF-8"?><!DOCTYPE svg PUBLIC "-//W3C//DTD SVG 1.1//EN" "http://www.w3.org/Graphics/SVG/1.1/DTD/svg11.dtd"><svg xmlns="http://www.w3.org/2000/svg" xmlns:xlink="http://www.w3.org/1999/xlink"><defs/><symbol id="arrow-down" viewBox="0 0 32 32"><path fill="#505050" d="M16 13.091l-5.236-5.818H0l16 17.455L32 7.273H21.236z"/></symbol><symbol id="arrow-up" viewBox="0 0 32 32"><path fill="#505050" d="M16 18.909l5.236 5.818H32L16 7.272 0 24.727h10.764z"/></symbol><symbol id="close-dark" viewBox="0 0 32 32"><path fill="#505050" d="M32 0h-4.48l-11.2 11.52L4.48 0H0v4.48L11.84 16 0 27.52V32h4.48l11.84-11.36L27.52 32H32v-4.48L20.8 16 32 4.48z"/></symbol><symbol id="close-light" viewBox="0 0 32 32"><path fill="#fff" d="M32 0h-4.48l-11.2 11.52L4.48 0H0v4.48L11.84 16 0 27.52V32h4.48l11.84-11.36L27.52 32H32v-4.48L20.8 16 32 4.48z"/></symbol><symbol id="facebook" viewBox="0 0 32 32"><path fill="#505050" d="M31.127 2.473v-.436h-.145C30.255.873 28.946.001 27.491.001H4.073C1.891.001 0 1.892 0 4.074v23.855c0 2.182 1.891 4.073 4.073 4.073h11.491V20.22h-3.927v-4.655h3.927V12.22c0-3.927 2.327-6.109 5.818-6.109 1.6 0 3.055.145 3.491.145v4.073h-2.327c-1.891 0-2.182.873-2.182 2.182v2.909h4.364l-.582 4.655h-3.927v11.927h7.273c1.6 0 3.055-1.018 3.636-2.473.291-.582.291-1.018.291-1.6V4.074a2.02 2.02 0 0 0-.291-1.6z"/></symbol><symbol id="instagram" viewBox="0 0 32 32">
<path fill="#505050" d="M4.114 0h23.771a4.097 4.097 0 0 1 4.114 4.114v23.771a4.097 4.097 0 0 1-4.114 4.114H4.114A4.097 4.097 0 0 1 0 27.885V4.114A4.097 4.097 0 0 1 4.114 0zm19.2 3.505c-.762 0-1.371.61-1.371 1.371v3.505c0 .762.61 1.371 1.371 1.371h3.657c.762 0 1.371-.61 1.371-1.371V5.029c0-.762-.61-1.371-1.371-1.371h-3.657zm5.029 10.057H25.6c.305.914.305 1.829.305 2.743 0 5.333-4.419 9.6-9.905 9.6s-9.905-4.267-9.905-9.6c0-.914.152-1.829.457-2.743H3.504v13.562c0 .762.61 1.219 1.219 1.219h22.248c.762 0 1.219-.61 1.219-1.219V13.562zM16 9.752c-3.505 0-6.4 2.743-6.4 6.248s2.895 6.248 6.4 6.248c3.505 0 6.4-2.743 6.4-6.248S19.505 9.752 16 9.752z"/>
</symbol><symbol id="menu-dots" viewBox="0 0 32 32"><path fill="#cacaca" d="M26.667 12c1.104 0 2.046.392 2.829 1.171s1.171 1.725 1.171 2.829-.392 2.046-1.171 2.829S27.771 20 26.667 20s-2.046-.392-2.829-1.171-1.171-1.725-1.171-2.829.392-2.046 1.171-2.829S25.563 12 26.667 12zM5.333 12c1.104 0 2.046.392 2.829 1.171S9.333 14.896 9.333 16s-.392 2.046-1.171 2.829S6.437 20 5.333 20s-2.046-.392-2.829-1.171S1.333 17.104 1.333 16s.392-2.046 1.171-2.829S4.229 12 5.333 12z"/><path fill="#cacaca" d="M5.333 14.667c-.367 0-.683.129-.942.392s-.392.575-.392.942.129.683.392.942.575.392.942.392.683-.129.942-.392.392-.575.392-.942-.129-.683-.392-.942-.575-.392-.942-.392zM16 12c1.104 0 2.046.392 2.829 1.171S20 14.896 20 16s-.392 2.046-1.171 2.829S17.104 20 16 20s-2.046-.392-2.829-1.171S12 17.104 12 16s.392-2.046 1.171-2.829S14.896 12 16 12z"/><path fill="#cacaca" d="M16 14.667c-.367 0-.683.129-.942.392s-.392.575-.392.942.129.683.392.942.575.392.942.392.683-.129.942-.392.392-.575.392-.942-.129-.683-.392-.942-.575-.392-.942-.392zm10.667 0c-.367 0-.683.129-.942.392s-.392.575-.392.942.129.683.392.942.575.392.942.392.683-.129.942-.392.392-.575.392-.942-.129-.683-.392-.942-.575-.392-.942-.392z"/></symbol><symbol id="menu" viewBox="0 0 32 32">
<path fill="#505050" d="M30.6,13.5H1.4C0.1,13.5,0,14.6,0,16s0.1,2.5,1.4,2.5h29.3c1.3,0,1.4-1.1,1.4-2.5S31.9,13.5,30.6,13.5z
	 M30.6,27H1.4C0.1,27,0,28.1,0,29.5S0.1,32,1.4,32h29.3c1.3,0,1.4-1.1,1.4-2.5S31.9,27,30.6,27z M1.4,5h29.3C31.9,5,32,3.9,32,2.5
	S31.9,0,30.6,0H1.4C0.1,0,0,1.1,0,2.5S0.1,5,1.4,5z"/>
</symbol><symbol id="monash-full" viewBox="0 0 109 32"><path fill="#505050" d="M41.594 15.584v7.82c0 3.217-1.331 4.714-4.159 4.714-3.272 0-3.965-2.551-3.965-4.714v-7.82h-.971v7.82c0 3.688 1.664 5.574 4.936 5.574 3.383 0 5.102-1.858 5.102-5.574v-7.82h-.943zm7.155 3.383c-1.47 0-2.745.776-3.272 1.997v-1.775h-.86v9.456h.86v-5.102c0-2.302 1.276-3.799 3.272-3.799 2.551 0 2.551 2.218 2.551 2.967v5.962h.86V22.85c-.028-1.081-.028-3.882-3.411-3.882zm5.49.222v9.456h.832v-9.456h-.083zm0-2.884v1.276h.832v-1.276h-.083zm9.262 2.884s-2.995 8.125-3.106 8.402c-.111-.277-3.328-8.402-3.328-8.402h-.971l3.799 9.456h.971l3.577-9.456H63.5zm5.546-.222c-1.109 0-2.052.388-2.773 1.109-.915.915-1.414 2.385-1.414 3.993-.028 1.497.444 2.773 1.303 3.66.721.749 1.747 1.137 2.884 1.137 2.274 0 3.716-1.22 4.104-3.438l.028-.083h-.86v.055c-.333 1.692-1.525 2.69-3.244 2.69-.887 0-1.636-.305-2.218-.887-.721-.721-1.109-1.858-1.109-3.106v-.028h7.515v-.443c0-1.442-.444-2.69-1.22-3.522-.776-.721-1.775-1.137-2.995-1.137zm0 .777c2.107 0 3.244 1.802 3.328 3.605h-6.627c.166-1.802 1.331-3.605 3.3-3.605zm6.544 1.331v-1.886h-.86v9.456h.86v-5.158c.083-1.414.388-1.941 1.026-2.634a3.169 3.169 0 0 1 2.496-.887h.083v-.832h-.083c-1.525-.055-3.023.776-3.522 1.941zm8.097 2.329l-.277-.055c-1.414-.305-2.745-.582-2.745-1.913 0-1.248 1.331-1.719 2.607-1.719.998 0 2.662.305 2.662 2.302v.083h.86v-.083c0-1.969-1.248-3.05-3.522-3.05-.804 0-3.438.166-3.438 2.468 0 2.052 1.886 2.44 3.272 2.718l.25.055c1.47.305 2.884.582 2.884 1.997 0 1.719-1.997 1.886-2.856 1.886-1.719 0-2.884-1.026-2.995-2.634v-.083h-.832v.083c.055 2.08 1.525 3.383 3.854 3.383.86 0 3.716-.194 3.716-2.662-.083-1.969-1.608-2.412-3.438-2.773zm5.102-4.215v9.456h.86v-9.456h-.083zm14.059 0s-2.995 7.986-3.133 8.347c-.139-.36-3.411-8.347-3.411-8.347h-3.023v-2.884h-.86v2.884h-1.719v.776h1.719v6.572c0 .721.166 1.248.555 1.608.555.555 1.497.555 2.246.527h.083v-.749h-.083c-.776.028-1.276-.028-1.581-.333-.25-.222-.361-.61-.361-1.22v-6.406h2.357c.028.111 3.577 8.513 3.605 8.568-.416 1.192-.665 1.858-.943 2.135-.444.444-.887.582-1.886.582h-.083v.749h.083c1.026 0 1.692-.028 2.218-.444.388-.305.693-.971 1.109-1.941l4.021-10.399h-.915zM88.79 16.305v1.276h.86v-1.276h-.083zm-34.8-2.745c-3.771-.083-6.932-2.967-6.849-6.988.111-3.161 2.634-6.738 7.237-6.6 3.217.055 6.794 2.468 6.711 6.905-.111 4.464-3.854 6.794-7.099 6.683zM54.128.832c-2.884 0-4.88 2.107-4.88 5.685 0 4.27 2.523 6.184 4.908 6.184 2.884 0 4.797-2.218 4.797-5.712.028-3.771-1.913-6.156-4.825-6.156zM109.393.36V.166h-3.771V.36c.749.055.943.194.943 1.248v4.603h-6.766V1.608c0-1.054.194-1.22.943-1.248V.166h-3.771V.36c.749.055.943.194.943 1.248v10.315c0 1.054-.194 1.22-.943 1.248v.194h3.771v-.194c-.749-.055-.943-.194-.943-1.248V7.015h6.766v4.936c0 1.054-.194 1.22-.943 1.248v.194h3.771v-.194c-.749-.055-.943-.194-.943-1.248V1.636c0-1.081.194-1.22.943-1.276zM62.087.166V.36c.721.028.943.111.943.887v10.704c0 1.054-.194 1.22-.943 1.248v.194h2.856v-.194c-.749-.055-.943-.194-.943-1.248V2.329c0 .166 7.348 9.123 8.957 11.064h.305V1.247c0-.776.194-.832.943-.887V.166h-2.801V.36c.721.028.943.111.943.887v8.402L64.583.165h-2.496zm18.523 0h-.25c-.665 1.581-3.771 8.901-4.825 11.425-.194.444-.499 1.137-.721 1.386-.166.194-.333.194-.499.222v.194h2.523v-.194c-.194 0-.638 0-.665-.388 0-.111.028-.25.083-.388.083-.222.582-1.525 1.22-2.967h5.019c.499 1.22.943 2.274 1.165 2.745.055.139.194.471.194.61 0 .361-.333.388-.693.388v.194h3.522v-.194c-.444-.028-.582-.139-.887-.86L80.611.166zm-2.828 8.458c.86-2.107 2.163-5.435 2.163-5.435s1.192 2.995 2.191 5.435h-4.354zM31.75.166V.36c.416.028.638.055.776.222.028.055.083.139.111.194.028.055.028.139.028.222v10.954c0 1.054-.194 1.22-.943 1.248v.194h2.828V13.2c-.749-.055-.943-.194-.943-1.248V2.774c0-.166-.028-.499-.028-.499l.166.499 4.575 10.565h.277l4.659-10.87.139-.444s-.028.222-.028.416v9.511c0 1.054-.194 1.22-.943 1.248v.194h3.771V13.2c-.749-.055-.943-.194-.943-1.248V1.248c0-.776.194-.832.943-.887V.167h-2.939l-4.215 9.983-4.27-9.983h-3.023zm55.571 12.34c.887.527 2.191 1.081 3.605 1.081h.083c2.052-.028 4.243-1.553 4.243-3.965 0-2.607-1.83-3.217-3.66-4.159-1.858-.915-2.634-1.386-2.634-2.607 0-.832.499-2.052 2.163-2.052.527 0 .998.139 1.386.333 1.331.749 1.414 1.802 1.581 2.468h.194L94.171.666c-.86-.36-1.525-.527-1.997-.582a8.394 8.394 0 0 0-.776-.055c-1.858 0-4.021 1.109-4.021 3.438 0 1.581.943 2.579 2.828 3.522 1.858.943 3.272 1.331 3.272 3.189 0 .943-.555 2.607-2.634 2.607-.832 0-1.497-.277-2.024-.721-1.248-1.165-1.22-2.107-1.303-2.468h-.194v2.912zm-67.883-5.99h-.222V1.857c.194.471.222.943.222 1.331v3.328zM10.62 4.659c.277.083.582.139.915.166v-.222a4.762 4.762 0 0 1-.86-.166c-.361-.083-.693-.166-1.026-.166-.166 0-.333.028-.471.083v.25a1.11 1.11 0 0 1 .471-.083c.305-.028.638.055.971.139zm-2.689-.167c.194 0 .36.028.471.083v-.25a1.306 1.306 0 0 0-.471-.083c-.333 0-.665.083-1.026.166a4.252 4.252 0 0 1-.86.166v.222c.305-.028.61-.083.915-.166.361-.055.665-.139.971-.139zm0-.554c.194 0 .36.055.471.083v-.25c-.139-.055-.305-.055-.471-.083-.333 0-.665.083-1.026.166a4.252 4.252 0 0 1-.86.166v.222c.333-.028.61-.083.915-.166.361-.083.665-.166.971-.139zm0 1.137c.194 0 .36.028.471.083v-.25c-.139-.055-.305-.055-.471-.083-.333 0-.665.083-1.026.166a4.252 4.252 0 0 1-.86.166v.222c.333-.028.61-.111.915-.166.361-.083.665-.166.971-.139zm0-1.72c.194 0 .36.055.471.083v-.25a1.306 1.306 0 0 0-.471-.083c-.333 0-.665.083-1.026.166a4.252 4.252 0 0 1-.86.166v.222c.305-.028.61-.083.915-.166.361-.055.665-.139.971-.139zM6.433 20.326c-2.745-4.52-2.69-8.929-2.69-9.484V.166H24.54v10.676c0 .555.055 4.964-2.69 9.484-2.44 4.104-6.128 5.906-7.709 6.461-1.553-.555-5.241-2.357-7.709-6.461zm5.546-.832l-.555-.444.305-.666-.721.139-.305-.638-.333.638-.693-.139.305.666-.555.444.693.166v.721l.582-.444.555.444v-.721l.721-.166zm2.967 4.52l.693-.333-.693-.305.25-.721-.721.277-.305-.693-.305.666-.721-.277.277.721-.693.305.693.333-.277.721.721-.277.305.693.305-.693.721.277-.25-.693zm-1.525-8.264l-.555.471.693.166v.721l.555-.444.582.444.028-.721.693-.166-.555-.471.305-.665-.721.139-.305-.638-.305.638-.721-.139.305.665zm2.44 4.548l.416-.444-.61-.111-.277-.555-.277.555-.61.111.444.444-.111.61.555-.277.555.277-.083-.61zm2.052-2.191l.333-.555h-.638l-.305-.555-.305.555h-.638l.333.555-.333.555h.638l.305.555.305-.555h.638l-.333-.555zm4.881-13.365a.877.877 0 0 0-.388.388.785.785 0 0 0-.111.416v.111l.25-.166c.055-.055.111-.139.166-.194a1.02 1.02 0 0 0 .083-.416v-.139zm-2.163 3.189c.166.083.36.111.555.083s.333-.111.471-.25c-.166-.083-.333-.111-.527-.083s-.36.139-.499.25zm0-.305a.938.938 0 0 0 .139-.471V7.1a1.227 1.227 0 0 0-.416.333.938.938 0 0 0-.139.471v.055a.633.633 0 0 0 .416-.333zm.222-.056s0 .028 0 0c.055 0 .083 0 .111-.028.111-.083.166-.194.222-.333.028-.083.055-.194.055-.277s-.028-.166-.055-.25a.79.79 0 0 0-.25.277c0 .25-.028.444-.083.61zm.527-.443c0 .028 0 .028 0 0 .055 0 .083-.028.111-.055a.824.824 0 0 0 .139-.361v-.083a.914.914 0 0 0-.139-.444c-.083.111-.166.222-.194.333.083.25.111.416.083.61zm.388-.555c0 .028 0 .028 0 0 .055 0 .083-.028.111-.083a.811.811 0 0 0 .055-.277v-.111a.872.872 0 0 0-.25-.471.863.863 0 0 0-.083.361c.083.222.139.388.166.582zm.277-.638c0 .028 0 .028 0 0 .055-.028.055-.055.083-.111v-.055c0-.111-.028-.222-.055-.333-.055-.166-.194-.277-.36-.388-.028.055-.028.139-.028.194s0 .111.028.166c.166.194.277.361.333.527zm.111-.665a.207.207 0 0 0 .055-.111c-.028-.139-.055-.25-.139-.361a.853.853 0 0 0-.444-.305.89.89 0 0 0 .083.388c.194.083.333.222.444.388zm-.028-.805c-.055-.139-.111-.25-.222-.333a.903.903 0 0 0-.471-.194c.028.139.083.25.166.333.194.055.36.166.499.277h.028v-.083zm-.222-.526c0-.055-.028-.083-.028-.139a.79.79 0 0 0-.277-.25c-.166-.083-.333-.111-.527-.083.083.111.139.222.25.305.222 0 .416.055.582.166zm-.11 3.549c.166-.055.305-.194.416-.361a1.222 1.222 0 0 0-.555.028c-.139.055-.277.194-.388.333.083 0 .194.028.277.055.083 0 .166 0 .25-.055zm.471-.638a1.2 1.2 0 0 0 .333-.471.854.854 0 0 0-.527.166.903.903 0 0 0-.305.416c.083-.028.194-.028.277-.028s.166-.028.222-.083zm.499-1.275a1.176 1.176 0 0 0-.471.277 1 1 0 0 0-.194.499c.083-.028.166-.055.277-.083.083-.055.139-.111.194-.166a.731.731 0 0 0 .194-.527zM22.6 3.91c-.139.139-.25.277-.305.471-.028.055-.028.139-.028.222 0 .111.028.222.055.305.055-.083.139-.139.194-.194a.998.998 0 0 0 .111-.25c.028-.055.028-.139.028-.194.028-.111 0-.222-.055-.361zm-.555-.222c0 .166.055.333.166.499a1.14 1.14 0 0 1 .139-.25.797.797 0 0 0 .055-.25.912.912 0 0 0-.166-.527c-.111.166-.194.333-.194.527zm-.444-.804c0 .055 0 .139.028.194.028.166.139.305.277.444.028-.083.055-.194.083-.277V3.19c0-.055 0-.111-.028-.194a.986.986 0 0 0-.305-.471 1.396 1.396 0 0 0-.055.361zm-.083.333a2.05 2.05 0 0 0-.333-.194c-.166-.055-.36-.028-.527.028a.87.87 0 0 0 .305.25c.194-.028.416-.028.582.028h.028c-.028-.028-.028-.055-.055-.111zm-.527-1.054c0 .139.028.277.083.416a.825.825 0 0 0 .388.361c0-.111 0-.194.028-.305-.028-.083-.028-.166-.083-.222a.877.877 0 0 0-.388-.388c-.028.055-.028.083-.028.139zm-.721.055c.055.194.166.361.305.444s.305.139.471.166c-.055-.055-.083-.111-.139-.194-.028-.055-.055-.139-.083-.194l-.055-.055c-.111-.111-.277-.166-.499-.166zm-2.163 4.354c0 .139.111.305.36.305h.471a2.23 2.23 0 0 0-.111.665c0 .333.055.61.166.804a2.425 2.425 0 0 1-.86-.277h-.028l-.055.139h.028c.222.111.416.166.666.25 0 0 .194.028.333.055a.21.21 0 0 0-.055.139c0 .111.083.194.194.194s.194-.083.194-.194a.218.218 0 0 0-.055-.139c.139-.028.305-.055.305-.055.25-.055.471-.111.693-.25h.028l-.055-.166h-.028c-.25.139-.499.222-.86.277a2.05 2.05 0 0 0 .166-.804c0-.25-.028-.499-.111-.665h.471c.25 0 .36-.139.36-.305a.219.219 0 0 0-.222-.222.219.219 0 0 0-.222.222c0 .028 0 .055.028.083s.028.083-.055.083h-.277V3.189c0-.471-.028-1.054-.305-1.608l-.083-.166-.083.166c-.277.555-.305 1.137-.305 1.608v3.522h-.277c-.083 0-.055-.055-.055-.083s.028-.055.028-.083c0-.111-.083-.222-.194-.222-.083.028-.194.139-.194.25zm-.582.416a.78.78 0 0 0-.25-.277c-.028.083-.055.166-.055.25s.028.194.055.277c.028.139.111.222.194.333.028 0 .083.028.111.028v-.028a1.31 1.31 0 0 1-.055-.582zm-.166-3.522a.886.886 0 0 0-.527.083.602.602 0 0 0-.277.25c0 .055 0 .083-.028.139h.028c.166-.111.36-.166.582-.166.083-.083.166-.194.222-.305zm-.194 3.078c-.028-.111-.111-.222-.194-.333a.84.84 0 0 0-.139.444v.083c0 .139.055.25.139.361.028.028.083.055.111.083v-.028c-.028-.222 0-.388.083-.61zm-.638-.305c0 .083.028.166.055.277l.083.083s0-.028.028-.028c.028-.194.083-.388.194-.555 0-.139-.055-.25-.111-.361a.876.876 0 0 0-.25.471v.111zm.222-.776c.028-.055.028-.111.028-.166s-.028-.139-.028-.194a.968.968 0 0 0-.36.388c-.055.111-.055.222-.055.333v.055a.207.207 0 0 1 .055.111s.028 0 .028-.028a.988.988 0 0 1 .333-.499zm-.416-.999v.111h.028c.139-.139.305-.222.499-.277a.928.928 0 0 0 .166-.333 1 1 0 0 0-.499.194.583.583 0 0 0-.194.305zm-.083.694c.028.028.028.083.028.139h.028c.111-.166.25-.305.444-.388a.893.893 0 0 0 .083-.388.853.853 0 0 0-.444.305.46.46 0 0 0-.139.333zm-.111.693c-.111-.139-.277-.222-.471-.277a.996.996 0 0 0 .194.499c.055.055.139.111.194.166l.25.083a.75.75 0 0 0-.166-.471zm-.278.527a.924.924 0 0 0 .305.471c.055.055.139.083.222.111.111 0 .194 0 .277.028-.083-.166-.166-.333-.305-.416-.111-.139-.305-.194-.499-.194zm.389.776a.891.891 0 0 0 .416.361.797.797 0 0 0 .25.055c.083-.028.194-.028.277-.055-.111-.139-.25-.277-.388-.333-.166-.083-.36-.083-.555-.028zm.554.638a.861.861 0 0 0 .499.25c.166.028.36-.028.527-.083a.861.861 0 0 0-.499-.25c-.166-.055-.36 0-.527.083zm1.442.166v-.055a.925.925 0 0 0-.139-.471 1.227 1.227 0 0 0-.416-.333v.055c0 .166.055.333.139.471a.638.638 0 0 0 .416.333zm-.721-5.324a.836.836 0 0 1-.139.194c.166 0 .333-.055.471-.166s.25-.277.333-.444a.854.854 0 0 0-.527.166l-.055.055c-.028.055-.055.139-.083.194zm-.554 0c.028.111.028.194.028.305a.753.753 0 0 0 .36-.361.785.785 0 0 0 .111-.416c0-.055 0-.083-.028-.139a.877.877 0 0 0-.388.388c-.028.083-.055.139-.083.222zm-.084.721s.028 0 0 0c.222-.055.416-.055.61-.028a.86.86 0 0 0 .305-.25c-.166-.055-.36-.083-.527-.028a.514.514 0 0 0-.333.194c-.028.028-.028.055-.055.111zm-.443-.166v.055a.538.538 0 0 1 .083.277c.139-.139.222-.277.277-.444.028-.055.028-.139.028-.194a.863.863 0 0 0-.083-.361c-.139.139-.25.277-.305.471.028.055 0 .111 0 .194zm-.389.499c0 .083.028.166.055.25.055.083.111.166.139.25.083-.139.166-.305.166-.499 0-.166-.083-.361-.166-.527-.111.166-.194.333-.194.527zm-.277.582c0 .083 0 .139.028.194.028.083.055.166.111.25a.641.641 0 0 1 .194.194c.028-.111.055-.222.055-.305s0-.139-.028-.222a1.24 1.24 0 0 0-.305-.471 1.61 1.61 0 0 0-.055.361zm-.139.583c0 .139.028.305.111.416a.373.373 0 0 0 .166.194c.083.028.166.083.25.139v-.111a.785.785 0 0 0-.111-.416.816.816 0 0 0-.416-.388v.166zm-6.738 2.19c.194-.139.444-.194.749-.194.333 0 .665.055 1.026.166.361.083.776.194 1.165.166V2.273c-.416.028-.832-.083-1.22-.166-.333-.083-.665-.166-.943-.139-.416 0-.638.139-.776.25v4.825zm-3.133.111c.388.028.776-.055 1.165-.166.361-.083.693-.166 1.026-.166.305 0 .555.083.749.194V2.219c-.139-.139-.361-.25-.776-.25-.305 0-.61.055-.943.139-.388.111-.776.194-1.22.166v4.88zm-.749.777h3.355c.083.139.222.25.416.25s.361-.111.416-.25h3.355V2.385h-.416l.028.111v5.047H9.067c-.055.083-.111.111-.277.111-.139 0-.194-.028-.25-.111H5.407V2.496l.028-.111h-.416v5.546zm1.22 11.119l7.903-7.099 7.931 7.127c.527-.998.887-1.969 1.192-2.884l-9.123-8.208-9.095 8.18c.277.915.665 1.886 1.192 2.884zM7.931 5.629c.194 0 .36.028.471.083v-.25c-.139-.055-.305-.055-.471-.083-.333 0-.665.083-1.026.166a4.252 4.252 0 0 1-.86.166v.222c.305-.028.61-.111.915-.166.361-.055.665-.139.971-.139zm0 .582c.194 0 .36.028.471.083v-.25a1.306 1.306 0 0 0-.471-.083c-.333 0-.665.083-1.026.166a4.252 4.252 0 0 1-.86.166v.222c.305-.028.61-.111.915-.166.361-.083.665-.166.971-.139zm0-3.41c.194 0 .36.055.471.083v-.25c-.139-.055-.305-.055-.471-.083-.333 0-.665.083-1.026.166a4.252 4.252 0 0 1-.86.166v.222c.305-.028.61-.083.915-.166.361-.083.665-.139.971-.139zm2.689 1.303c.277.083.582.139.915.166v-.222a4.762 4.762 0 0 1-.86-.166c-.361-.083-.693-.166-1.026-.166-.166 0-.333.028-.471.083v.25a1.11 1.11 0 0 1 .471-.083c.305-.055.638.028.971.139zm0-1.137c.277.083.582.139.915.166v-.222a4.762 4.762 0 0 1-.86-.166c-.361-.083-.693-.166-1.026-.166-.166 0-.333.028-.471.083v.25a1.11 1.11 0 0 1 .471-.083c.305-.028.638.028.971.139zm0 2.246c.277.055.61.139.915.166v-.222a4.336 4.336 0 0 1-.86-.166c-.361-.083-.693-.166-.998-.166-.166 0-.333.028-.471.055v.25a1.11 1.11 0 0 1 .471-.083c.277 0 .61.083.943.166zm0-1.691c.277.083.582.139.915.166v-.222a4.762 4.762 0 0 1-.86-.166c-.361-.083-.693-.166-1.026-.166-.166 0-.333.028-.471.083v.25a1.11 1.11 0 0 1 .471-.083c.305-.028.638.055.971.139zm0 2.273c.277.083.582.139.915.166v-.222c-.277-.028-.582-.111-.86-.166-.361-.083-.693-.166-1.026-.166-.166 0-.333.028-.471.083v.25a1.11 1.11 0 0 1 .471-.083c.305-.028.638.055.971.139zm0 .555c.277.083.582.139.915.166v-.222a4.762 4.762 0 0 1-.86-.166c-.361-.083-.693-.166-1.026-.166-.166 0-.333.028-.471.083v.25a1.11 1.11 0 0 1 .471-.083c.305-.028.638.055.971.139zm17.692 11.785l-.055.139c-.527 1.747-1.414 3.494-2.052 4.631l-.139.222-.915-.832c-.028.055-.083.139-.111.194-2.329 3.716-5.601 6.406-9.511 7.848l-1.386.499-1.386-.499c-3.882-1.414-7.182-4.132-9.484-7.848-.028-.055-.055-.139-.111-.194l-.943.832-.139-.25C1.442 21.712.583 19.965.028 18.246L0 18.135l2.523-2.274.111.333c.111.416.25.804.388 1.192l.638-.582.25-.222.111.333a18.342 18.342 0 0 0 1.858 3.938c1.969 3.133 4.714 5.407 7.958 6.6 0 0 .222.083.333.111.111-.028.333-.111.333-.111 3.244-1.192 6.017-3.466 7.958-6.6a18.344 18.344 0 0 0 1.858-3.938l.111-.333.887.804c.139-.388.277-.776.388-1.192l.111-.333 2.496 2.274zM1.858 21.463l-.416-2.634 1.22-1.109a11.64 11.64 0 0 1-.361-1.054c-.361.333-1.608 1.442-1.775 1.608a22.08 22.08 0 0 0 1.331 3.189zm1.081.443a14.726 14.726 0 0 1-.776-1.47l.305 1.913c.083-.111.277-.277.471-.444zm23.21-1.469a15.05 15.05 0 0 1-.776 1.47c.194.166.36.333.471.444l.305-1.913zm.166-1.525a178.884 178.884 0 0 1-1.719-1.553c-.471 1.331-1.054 2.607-1.775 3.744-1.997 3.217-4.825 5.546-8.18 6.794l-.499.166-.471-.166c-3.355-1.22-6.156-3.577-8.18-6.794-.721-1.137-1.303-2.412-1.775-3.744-.361.305-1.525 1.386-1.719 1.553a19.624 19.624 0 0 0 1.664 3.328c2.274 3.633 5.49 6.267 9.289 7.653 0 0 1.109.388 1.22.444.139-.055 1.248-.444 1.248-.444 3.799-1.386 7.016-4.049 9.289-7.653.582-.998 1.165-2.135 1.608-3.328zm1.47-.666c-.166-.166-1.414-1.276-1.775-1.608-.111.36-.222.721-.36 1.054l1.22 1.109-.416 2.662c.471-.971.971-2.08 1.331-3.217zM3.882 21.629l.028.111-.083.055c-.055-.083-.083-.166-.139-.277-.055-.083-.111-.166-.166-.277l.083-.028.083.083c.083-.083.222-.194.277-.305l-.194-.36-.388.083.028.111-.055.028c-.028-.083-.083-.139-.111-.222-.028-.055-.055-.111-.111-.194l.083-.028.083.083c.277 0 .86-.111 1.22-.166.055.083.139.139.194.194l.028.111-.361.444c-.194.194-.416.471-.499.555zm.222-.749l.333-.36-.499.111.166.25zm2.024 2.052l.055-.055c-.055-.055-.083-.111-.139-.194-.055-.055-.083-.139-.139-.194l-.083.055.055.111c-.194.139-.638.499-.638.499a16.6 16.6 0 0 1 .388-1.054c-.055-.055-.083-.111-.139-.166-.028-.055-.083-.111-.111-.166l-.055.055.055.111c-.083.083-.166.139-.277.222l-.305.222a1.846 1.846 0 0 1-.305.194l-.083-.083-.055.055c.055.055.083.111.139.194.055.055.083.139.139.194l.055-.055-.083-.139c.194-.139.444-.333.665-.499-.139.333-.25.693-.388 1.081.028.028.055.083.083.111s.055.083.083.111c.111-.083.222-.194.388-.305l.305-.222c.111-.083.222-.139.305-.194l.083.111zm.111 1.026a.64.64 0 0 0-.028.943.934.934 0 0 0 .638.305l.028-.166c-.166-.028-.305-.083-.388-.194-.194-.194-.194-.471.028-.693s.471-.139.61.028a.446.446 0 0 1 .139.305l-.055.111.055.083c.083-.055.194-.139.277-.166-.055-.166-.139-.277-.25-.416-.305-.36-.749-.416-1.054-.139zm2.69 2.552c-.25.305-.638.333-1.026.028-.361-.305-.416-.666-.139-1.026.25-.305.665-.333 1.026-.028s.416.693.139 1.026zm-.277-.86c-.194-.166-.444-.083-.638.111-.194.222-.194.471 0 .638s.444.083.638-.111c.166-.222.194-.499 0-.638zm2.218 1.775c-.083.166-.277.194-.471.111.028.139.083.61.111.693l.028.055-.055.083c-.111-.083-.25-.139-.361-.194a6.49 6.49 0 0 0-.055-.749l-.083-.055-.055.111a1.116 1.116 0 0 0-.166.305l.083.083-.055.083-.25-.166c-.084-.055-.166-.111-.277-.166l.055-.083.111.055c.083-.083.139-.194.222-.305l.194-.333c.083-.111.139-.222.194-.305l-.083-.083.055-.083c.055.055.139.083.194.139.083.055.166.083.25.139s.166.083.25.139c.277.166.277.36.166.527zm-.416-.472c-.083-.055-.111-.055-.166-.083a2.548 2.548 0 0 1-.139.222l-.055.083.083.083c.166.111.305.111.388-.028.055-.111.028-.194-.111-.277zm2.108 1.498a9.38 9.38 0 0 0-.055.749l.083.055-.028.083c-.083-.055-.194-.083-.277-.139s-.194-.083-.277-.111l.028-.083.111.028c.028-.111.055-.277.055-.388l-.388-.166-.25.305.083.055-.028.083c-.083-.028-.166-.083-.222-.111s-.139-.055-.194-.083l.028-.083.111.028c.222-.166.61-.582.887-.887.111.028.194.028.277.055l.111.083-.055.527zm-.278-.5l-.333.388.277.139.055-.527zm4.076.971c-.055-.111-.111-.194-.166-.333l-.139-.333c-.055-.139-.111-.222-.139-.333l.111-.055-.028-.083c-.083.055-.194.083-.277.139-.083.028-.194.083-.277.111l.028.083.111-.028c.055.111.111.194.166.333l.139.333c.055.139.083.222.139.333l-.111.055.028.083c.083-.055.194-.083.277-.139.083-.028.194-.083.277-.111l-.028-.083-.111.028zm2.385-1.276c-.055-.083-.139-.194-.194-.305l-.194-.333a1.116 1.116 0 0 1-.166-.305l.083-.083-.055-.083c-.083.055-.166.111-.222.139-.083.055-.166.083-.25.139.055.166.166.832.194.971-.139-.111-.638-.499-.749-.638-.083.055-.166.111-.222.139-.083.055-.166.083-.25.139l.055.083.111-.028.083.166c.083.166.388.666.444.804l-.083.083.055.083c.055-.028.139-.083.194-.111s.139-.083.194-.111l-.055-.083-.111.055c-.055-.083-.139-.194-.194-.305l-.111-.194c-.083-.166-.166-.277-.194-.333.471.416.749.61.86.721l.166-.111-.222-1.109c.028.055.111.166.194.333l.111.194c.083.111.111.222.166.333l-.083.083.028.083.25-.166c.084-.055.194-.111.277-.166l-.028-.083h-.083zm1.276-.97a2.574 2.574 0 0 1-.25-.277l-.166-.222a1.245 1.245 0 0 1-.222-.305c.028-.028.055-.083.111-.111.139-.111.25-.083.333 0 .083.111.111.25-.028.333-.028.028-.055.055-.083.055l.055.166c.055-.028.111-.083.166-.111.277-.222.277-.499.139-.693-.139-.166-.36-.194-.582 0-.055.055-.111.111-.194.166-.083.083-.166.139-.222.194s-.139.111-.222.166l.055.055.111-.055c.083.083.166.166.25.277l.222.305c.083.111.166.194.222.277l-.083.083.055.055c.083-.055.166-.139.25-.194s.166-.111.277-.222l-.055-.055-.139.111zm2.19-1.997l.055.055c-.083.055-.139.139-.222.222s-.139.166-.222.222l-.055-.055.055-.083a4.346 4.346 0 0 0-.36-.194l-.305.305.194.333.083-.055.055.055-.166.166a.756.756 0 0 0-.139.166l-.055-.055.055-.083c-.083-.25-.36-.776-.527-1.137.055-.083.111-.166.139-.25l.111-.055.499.222c.222.111.555.25.666.277l.139-.055zm-.859.084l-.471-.222.25.444.222-.222zm2.274-1.886l.055.055c-.083.111-.166.222-.222.333-.25 0-.582-.028-.776-.028l-.055.083.083.083c.111.083.194.139.305.194l.083-.083.083.055c-.055.083-.139.166-.194.25s-.111.166-.194.25l-.083-.055.055-.111c-.083-.083-.166-.139-.277-.222l-.305-.222c-.111-.083-.194-.139-.305-.222l-.083.083-.083-.055a.503.503 0 0 0 .139-.194c.055-.083.111-.139.166-.222s.111-.139.166-.222c.222-.305.416-.277.555-.166s.166.305.083.471c.139 0 .61-.028.693-.028l.111-.028zm-1.026-.111c-.083-.083-.194-.055-.277.083-.055.055-.083.111-.111.139.055.028.111.111.222.166l.083.055.083-.083c.111-.139.111-.25 0-.36zm1.968-1.165c-.25.416-.61.527-.971.305-.333-.194-.444-.582-.194-.998s.582-.527.971-.305c.333.166.444.582.194.998zm-.388-.693c-.25-.139-.499-.111-.638.083-.139.222-.028.444.222.61.25.139.499.111.638-.083.139-.222.028-.471-.222-.61zm-10.038 7.848c-.139 0-.277.139-.277.305s.139.305.277.305c.166 0 .305-.139.305-.305s-.139-.305-.305-.305zM3.328 19.522c.166 0 .305-.139.305-.277 0-.166-.139-.305-.305-.305s-.277.139-.277.305c0 .139.139.277.277.277zm21.684 0c.166 0 .305-.139.305-.277a.308.308 0 0 0-.305-.305c-.139 0-.277.139-.277.305-.028.139.111.277.277.277z"/></symbol><symbol id="monash-logo" viewBox="0 0 30 32"><path fill="#fff" d="M20.283 6.597h-.246V1.772c.197.492.246.985.246 1.378v3.446zm-9.206-1.92c.295.098.64.148.935.197v-.246c-.295 0-.591-.098-.886-.197-.394-.098-.738-.197-1.083-.197-.197 0-.345.049-.492.098v.246c.148-.049.295-.098.492-.098.345 0 .689.098 1.034.197zm-2.806-.148c.197 0 .394.049.492.098v-.295c-.148-.049-.295-.049-.492-.098-.345 0-.689.098-1.083.197a5.75 5.75 0 0 1-.886.197v.246c.345 0 .64-.098.935-.197.394-.098.738-.197 1.034-.148zm0-.591c.197 0 .394.049.492.098v-.295c-.148-.049-.295-.049-.492-.098-.345 0-.689.098-1.083.197a5.75 5.75 0 0 1-.886.197v.246c.345 0 .64-.098.935-.197.394-.098.738-.197 1.034-.148zm0 1.182c.197 0 .394.049.492.098v-.295c-.148-.049-.295-.049-.492-.049-.345 0-.689.098-1.034.197a5.75 5.75 0 0 1-.886.197v.246c.345 0 .64-.098.935-.197.345-.148.689-.246.985-.197zm0-1.772c.197 0 .394.049.492.098v-.295c-.148-.049-.295-.049-.492-.098-.345 0-.689.098-1.083.197a5.75 5.75 0 0 1-.886.197v.246c.345 0 .64-.098.935-.197.394-.098.738-.197 1.034-.148zM6.695 21.022c-2.855-4.726-2.806-9.305-2.806-9.895V.001H25.6v11.126c0 .591.049 5.169-2.806 9.895-2.56 4.283-6.4 6.154-8.074 6.745-1.575-.591-5.415-2.462-8.025-6.745zm5.81-.887l-.591-.492.345-.689-.738.148-.345-.689-.345.738-.738-.148.295.689-.591.492.738.197v.738l.591-.443.591.443v-.738l.788-.246zm3.101 4.727l.738-.345-.738-.345.246-.738-.738.295-.345-.738-.345.738-.738-.295.295.738-.689.345.738.345-.345.738.738-.295.345.738.345-.738.738.295-.246-.738zm-1.575-8.616l-.591.492.738.197v.738l.591-.443.591.443v-.738l.738-.197-.591-.492.295-.689-.738.148-.295-.689-.345.689-.738-.148.345.689zm2.56 4.726l.443-.443-.64-.098-.295-.591-.295.591-.64.098.443.443-.098.64.591-.295.591.295-.098-.64zm2.117-2.264l.345-.591h-.689l-.295-.591-.345.64h-.689l.345.591-.345.542h.689l.345.591.295-.591h.689l-.345-.591zm5.07-13.933a1.491 1.491 0 0 0-.394.394c-.049.148-.098.295-.098.443v.098c.098-.049.148-.098.246-.148.049-.049.148-.148.148-.197.049-.148.098-.295.098-.443.049-.098 0-.098 0-.148zm-2.264 3.348c.197.098.394.148.591.098s.345-.148.492-.246a.684.684 0 0 0-.542-.098.79.79 0 0 0-.542.246zm0-.345a.835.835 0 0 0 .148-.492v-.049c-.197.098-.345.197-.443.345a.835.835 0 0 0-.148.492v.049c.246-.049.394-.197.443-.345zm.246-.049h.148c.098-.098.197-.197.246-.345.049-.098.049-.197.049-.295s-.049-.148-.049-.246l-.295.295c0 .197-.049.394-.098.591zm.542-.492c0 .049 0 .049 0 0 .049 0 .098-.049.148-.049a.56.56 0 0 0 .148-.394v-.049a.79.79 0 0 0-.148-.443c-.098.098-.148.246-.197.345.049.197.098.394.049.591zm.443-.542a.105.105 0 0 0 .098-.098c.049-.098.049-.197.049-.295v-.148c-.049-.197-.148-.345-.246-.492-.049.148-.098.246-.098.394.098.246.148.443.197.64zm.246-.689l.098-.098v-.049c0-.098 0-.246-.049-.345-.049-.148-.197-.295-.345-.394 0 .049-.049.148-.049.197v.197c.197.148.295.345.345.492zm.147-.689c.049-.049.049-.098.049-.148 0-.148-.049-.246-.148-.394s-.295-.246-.443-.345c0 .148.049.295.098.394.148.197.295.345.443.492zm-.049-.837c-.049-.148-.148-.246-.246-.345-.148-.098-.295-.197-.492-.197a.789.789 0 0 0 .197.345c.197.049.394.148.492.295h.049V4.48zm-.197-.542V3.79c-.098-.098-.197-.197-.295-.246-.197-.098-.394-.148-.591-.098.049.148.148.246.246.345.246-.049.443.049.64.148-.049 0 0 0 0 0zm-.147 3.693c.197-.049.345-.197.443-.394a.827.827 0 0 0-.591.049c-.148.049-.295.197-.394.345.098 0 .197 0 .295.049.098 0 .148 0 .246-.049zm.492-.689c.148-.098.246-.295.345-.492-.197 0-.394.049-.542.197-.148.098-.246.246-.345.443.098 0 .197-.049.295-.049s.197-.049.246-.098zm.541-1.28a1.02 1.02 0 0 0-.492.295c-.098.148-.197.345-.197.492.098-.049.197-.049.295-.098s.148-.098.197-.197.148-.295.197-.492zm-.196-1.773a1.017 1.017 0 0 0-.295.492c0 .049-.049.148-.049.197 0 .098.049.197.049.345.049-.098.148-.148.197-.197.098-.098.148-.148.148-.246 0-.049.049-.148.049-.197 0-.148-.049-.246-.098-.394zm-.591-.246c0 .197.049.345.148.492.049-.098.098-.148.148-.246s.049-.197.049-.246c0-.197-.049-.394-.197-.542-.049.197-.148.394-.148.542zm-.443-.837v.197a.717.717 0 0 0 .295.443c0-.098.049-.197.098-.295v-.246a1.02 1.02 0 0 0-.295-.492c-.049.148-.098.295-.098.394zm-.099.394c-.098-.098-.246-.148-.345-.197-.197-.049-.394-.049-.542.049.098.098.197.197.345.246.197-.049.443-.049.64.049h.049c-.098-.098-.098-.148-.148-.148zm-.541-1.132c0 .148.049.295.098.443.098.148.246.295.394.394 0-.098 0-.197.049-.295 0-.098-.049-.148-.098-.246-.098-.197-.246-.295-.394-.394-.049 0-.049.049-.049.098zm-.739.049c.049.197.197.345.345.492a.835.835 0 0 0 .492.148c-.049-.049-.098-.148-.148-.197-.049-.049-.049-.148-.098-.197l-.049-.049c-.148-.148-.345-.197-.542-.197zm-2.264 4.578c0 .148.098.295.394.295h.492a2.918 2.918 0 0 0-.098.689c0 .345.049.64.197.837a2.09 2.09 0 0 1-.886-.295l-.148.148c.246.148.443.197.689.246 0 0 .197.049.345.049-.049.049-.049.098-.049.148 0 .098.098.197.197.197s.197-.098.197-.197c0-.049 0-.098-.049-.148.148 0 .345-.049.345-.049.295-.049.492-.098.738-.246l-.049-.148a2.345 2.345 0 0 1-.886.295c.098-.197.148-.492.148-.837 0-.246-.049-.542-.098-.689h.492c.295 0 .394-.148.394-.295 0-.098-.098-.246-.197-.246s-.197.098-.197.197v.098c0 .049.049.098-.049.098h-.295V3.15c0-.492-.049-1.083-.295-1.674l-.098-.148-.148.148c-.295.591-.345 1.182-.345 1.674v3.692h-.295c-.098 0-.049-.049-.049-.098v-.098c0-.098-.098-.197-.197-.197s-.197.098-.197.246zm-.591.443c-.049-.098-.148-.197-.246-.295 0 .098-.049.197-.049.246 0 .098 0 .197.049.295a.789.789 0 0 0 .197.345c.049 0 .098 0 .098.049v-.049c-.049-.197-.098-.394-.049-.591zm-.197-3.692c-.197 0-.394 0-.542.098-.098.049-.197.148-.295.246 0 .049 0 .098-.049.148.148-.098.394-.148.591-.197.148-.098.246-.197.295-.295zm-.197 3.2a.789.789 0 0 0-.197-.345.798.798 0 0 0-.148.443v.049c0 .148.049.246.148.394.049 0 .098.049.098.049 0-.197 0-.394.098-.591zm-.689-.295c0 .098 0 .197.049.295l.098.098c0-.197.098-.394.197-.591 0-.148-.049-.246-.098-.394-.148.148-.246.295-.246.492v.098zm.246-.837v-.197c0-.049 0-.148-.049-.197-.148.098-.295.246-.345.394-.049.098-.049.246-.049.345v.049c.049.049.049.098.049.148.098-.197.246-.394.394-.542zm-.443-1.034v.148h.049a.968.968 0 0 1 .542-.295c.049-.148.098-.246.148-.394-.197 0-.394.098-.492.197s-.197.197-.246.345zm-.099.738c0 .049.049.098.049.148a1.16 1.16 0 0 1 .443-.394c.049-.148.098-.246.098-.394-.197.049-.345.197-.443.345-.049 0-.098.148-.148.295zm-.098.69a1.017 1.017 0 0 0-.492-.295c0 .197.098.394.197.542l.197.197c.098 0 .197.049.246.098a.557.557 0 0 0-.148-.542zm-.295.59a.898.898 0 0 0 .345.492c.049.049.148.098.246.098s.197 0 .295.049c-.049-.197-.197-.345-.345-.443-.148-.148-.295-.197-.542-.197zm.443.788c.098.148.246.295.443.394a.536.536 0 0 0 .246.049c.098-.049.197-.049.295-.049-.098-.148-.246-.295-.443-.345-.148-.098-.345-.098-.542-.049zm.541.64c.148.148.345.246.492.246.197.049.394 0 .542-.098-.148-.148-.345-.246-.492-.246-.148 0-.345 0-.542.098zm1.526.197s0-.049 0 0c0-.246-.049-.394-.148-.542-.098-.148-.246-.246-.443-.345v.049c0 .197.049.345.148.492s.246.295.443.345zm-.787-5.563c-.049.049-.098.148-.148.197.197 0 .345-.049.492-.148s.246-.295.345-.492a.99.99 0 0 0-.542.148l-.049.049a.377.377 0 0 1-.098.246zm-.542 0c0 .098.049.197.049.295.148-.098.295-.246.394-.394.049-.098.049-.246.049-.394v-.148a1.491 1.491 0 0 0-.394.394c-.049.098-.098.197-.098.246zm-.098.738c.197-.049.443-.049.64-.049.098-.049.246-.148.345-.246a1.206 1.206 0 0 0-.591 0 .789.789 0 0 0-.345.197s0 .049-.049.098zm-.443-.147V3.2c.049.098.098.197.098.295.148-.148.246-.295.295-.443v-.197c0-.148-.049-.246-.098-.345a1.017 1.017 0 0 0-.295.492v.148zm-.394.492c0 .098 0 .197.049.246.049.098.098.148.148.246a.956.956 0 0 0 .148-.492c0-.197-.049-.345-.197-.542a1.292 1.292 0 0 0-.148.542zm-.296.64c0 .049 0 .148.049.197 0 .098.049.197.098.246.098.049.148.148.197.197.049-.098.049-.197.049-.345 0-.049 0-.148-.049-.197a1.02 1.02 0 0 0-.295-.492c-.049.148-.049.246-.049.394zm-.147.591c0 .148.049.295.098.443a.666.666 0 0 0 .148.197c.098.049.197.098.246.148v-.098c0-.148-.049-.295-.098-.443-.098-.197-.246-.295-.443-.394.049.098.049.098.049.148zm-7.04 2.314c.197-.148.443-.197.788-.197s.689.049 1.083.148c.394.098.788.197 1.182.197v-5.07c-.443.049-.886-.098-1.28-.197-.345-.098-.689-.197-.985-.148-.443 0-.64.148-.788.246v5.022zm-3.299.098c.394.049.788-.049 1.182-.197.394-.098.738-.197 1.083-.148.345 0 .591.098.788.197V2.116c-.148-.148-.394-.246-.788-.246-.295 0-.64.049-.985.148-.394.098-.837.197-1.28.197v5.07zm-.738.837h3.495c.049.148.246.246.443.246s.394-.098.443-.246h3.495V2.314h-.492l.049.098v5.317H9.452c-.049.098-.148.098-.295.098s-.197 0-.246-.098H5.662V2.412l.049-.098h-.443v5.809zm1.23 11.569l8.271-7.434 8.271 7.434a18.475 18.475 0 0 0 1.231-3.003l-9.502-8.566-9.502 8.566c.295.935.689 1.969 1.231 3.003zM8.271 5.711c.197 0 .394.049.492.098v-.246c-.148-.049-.295-.049-.492-.098-.345 0-.689.098-1.083.197-.295.049-.591.148-.886.197v.246c.345 0 .64-.098.935-.197.394-.148.738-.246 1.034-.197zm0 .591c.197 0 .394.049.492.098v-.246c-.148-.049-.295-.049-.492-.098-.345 0-.689.098-1.083.197a5.75 5.75 0 0 1-.886.197v.246c.345 0 .64-.098.935-.197.394-.148.738-.246 1.034-.197zm0-3.545c.197 0 .394.049.492.098V2.56c-.148-.049-.295-.049-.492-.098-.345 0-.689.049-1.083.148a5.75 5.75 0 0 1-.886.197v.246c.345 0 .64-.098.935-.197.394-.049.738-.148 1.034-.098zm2.806 1.329c.295.098.64.148.935.197v-.246c-.295 0-.591-.098-.886-.197-.394-.098-.738-.197-1.083-.197-.197 0-.345.049-.492.098v.246c.197-.049.345-.049.542-.049.295-.049.64.049.985.148zm0-1.181c.295.098.64.148.935.197v-.246c-.295 0-.591-.098-.886-.197-.394-.098-.738-.197-1.083-.148-.197 0-.345.049-.492.049v.246c.148-.049.295-.098.492-.098.345 0 .689.098 1.034.197zm0 2.363c.295.049.64.148.935.197v-.246c-.295 0-.591-.098-.886-.197-.394-.098-.738-.197-1.034-.197-.197 0-.345.049-.492.049v.246c.148-.049.295-.098.492-.098.295.049.64.148.985.246zm0-1.773c.295.098.64.148.935.197v-.246c-.295-.049-.591-.098-.886-.197-.394-.098-.738-.197-1.083-.197-.197 0-.345.049-.492.098v.246c.148-.049.295-.098.492-.098.345 0 .689.098 1.034.197zm0 2.363c.295.098.64.148.935.197v-.246c-.295 0-.591-.098-.886-.197-.394-.098-.738-.197-1.083-.197-.197 0-.345.049-.492.098v.246c.148-.049.295-.098.492-.098.345 0 .689.098 1.034.197zm0 .591c.295.098.64.148.935.197V6.4c-.295 0-.591-.098-.886-.197-.394-.098-.738-.197-1.083-.197-.197 0-.345.049-.492.098v.295c.148-.049.295-.098.492-.098.345-.049.689.049 1.034.148zm18.461 12.259l-.049.148c-.542 1.822-1.477 3.643-2.166 4.825l-.148.246-.935-.886a.374.374 0 0 0-.098.197c-2.412 3.889-5.858 6.695-9.895 8.172l-1.477.591-1.428-.542c-4.086-1.477-7.483-4.332-9.945-8.172-.049-.049-.049-.148-.098-.197l-.985.886-.148-.246C1.477 22.499.591 20.678 0 18.905v-.197l2.363-2.117.295-.246.049.394c.148.443.295.837.443 1.231l.64-.591.246-.246.098.345a19.778 19.778 0 0 0 1.92 4.135c2.018 3.249 4.923 5.662 8.32 6.892 0 0 .246.098.345.148.098-.049.345-.148.345-.148 3.397-1.231 6.252-3.643 8.32-6.892.788-1.231 1.428-2.658 1.92-4.135l.098-.345.935.837c.148-.394.295-.837.394-1.231l.098-.345 2.708 2.314zM1.92 22.203l-.443-2.757 1.28-1.132c-.148-.345-.246-.689-.394-1.083-.394.345-1.674 1.526-1.871 1.674.443 1.132.935 2.314 1.428 3.298zm1.132.443a23.509 23.509 0 0 1-.837-1.526l.345 2.018c.098-.148.295-.295.492-.492zm24.271-1.526c-.246.542-.542 1.034-.837 1.526.197.197.394.345.492.443l.345-1.969zm.148-1.575c-.197-.197-1.428-1.28-1.822-1.625-.492 1.378-1.083 2.708-1.871 3.889-2.068 3.397-5.022 5.809-8.517 7.089l-.492.197-.492-.197c-3.495-1.28-6.449-3.742-8.566-7.089A20.36 20.36 0 0 1 3.84 17.92a43.82 43.82 0 0 1-1.822 1.625 25.57 25.57 0 0 0 1.723 3.495c2.363 3.791 5.711 6.548 9.698 7.975 0 0 1.132.394 1.28.492.148-.049 1.28-.492 1.28-.492 3.988-1.477 7.335-4.234 9.698-7.975a21.178 21.178 0 0 0 1.772-3.495zm1.526-.69c-.197-.148-1.477-1.329-1.871-1.674-.098.394-.246.738-.345 1.083l1.28 1.132-.443 2.757c.492-.935.985-2.117 1.378-3.298zM4.086 22.4l.049.098-.098.049-.148-.295-.148-.295.098-.049.098.098.295-.295-.295-.345-.394.098.049.098-.049.049c-.049-.098-.098-.148-.098-.246-.049-.049-.049-.148-.098-.197l.049-.049.049.098c.295 0 .886-.098 1.28-.197.049.098.148.148.197.197l.049.148-.394.394c-.197.246-.443.542-.492.64zm.197-.788l.345-.394-.542.098.197.295zM6.4 23.729l.049-.049c-.049-.049-.098-.148-.148-.197s-.098-.148-.148-.197l-.098.049.049.098c-.197.148-.689.542-.689.542.148-.345.246-.738.394-1.083-.049-.049-.098-.098-.148-.197-.049-.049-.098-.098-.098-.197l-.049.049.049.098c-.098.098-.197.148-.295.246l-.246.246a1.034 1.034 0 0 1-.295.197l-.098-.098-.049.049c.049.049.098.148.148.197s.098.148.148.197l.049-.049-.049-.098c.197-.148.492-.345.689-.542a7.685 7.685 0 0 0-.394 1.132c.049.049.049.098.098.148s.049.098.098.098a2.69 2.69 0 0 1 .394-.295l.295-.246a.793.793 0 0 1 .345-.197v.098zm.098 1.083c-.295.295-.295.738-.049.985.148.197.345.295.689.345v-.148c-.197-.049-.295-.098-.394-.197-.197-.197-.197-.492.049-.738.246-.197.492-.148.64 0 .049.098.148.197.148.295l-.049.098.049.098c.098-.049.197-.148.295-.148-.049-.148-.148-.295-.246-.443-.345-.345-.788-.443-1.132-.148zm2.807 2.659c-.246.295-.689.345-1.083.049s-.443-.689-.148-1.034c.246-.295.689-.345 1.083-.049s.443.689.148 1.034zm-.247-.886c-.197-.148-.443-.098-.64.148s-.197.492 0 .689c.197.148.492.098.64-.148s.197-.542 0-.689zm2.314 1.821c-.098.148-.295.197-.492.098 0 .148.098.64.098.738l.049.049-.049.098c-.098-.098-.246-.148-.394-.197 0-.246-.049-.591-.049-.788l-.098-.049-.049.098c-.098.098-.148.246-.197.345l.098.098-.049.098a.851.851 0 0 1-.246-.197l-.295-.148.049-.098h.098c.098-.098.148-.197.197-.295l.197-.345c.098-.098.148-.246.197-.345l-.098-.098.049-.098c.049.049.148.098.197.148.098.049.148.098.246.148s.148.098.246.148c.394.246.394.443.295.591zm-.443-.443c-.098-.049-.098-.049-.148-.098-.049.049-.098.148-.148.246l-.049.098c.049 0 .049.049.098.049.148.098.295.098.394-.049 0-.098 0-.197-.148-.246zm2.166 1.526c-.049.246-.049.64-.049.788l.098.049-.049.098-.295-.148-.295-.148.049-.098.098.049c0-.098.049-.295.049-.394l-.394-.197-.295.295.098.049-.049.098c-.098-.049-.148-.098-.246-.098-.049-.049-.148-.049-.197-.098l.049-.098h.098c.246-.197.64-.64.935-.935.098.049.197.049.295.049l.098.098v.64zm-.295-.492l-.345.394.295.148.049-.542zm4.283.985a2.482 2.482 0 0 1-.148-.345l-.148-.345a2.307 2.307 0 0 0-.148-.345l.098-.049-.049-.098-.295.148-.295.148.049.098.148-.049c.049.098.098.197.148.345l.148.345c.049.148.098.246.148.345l-.098.049.049.098.295-.148c.098-.05.197-.098.295-.098l-.049-.098h-.148zm2.462-1.33c-.049-.098-.148-.197-.197-.295l-.197-.345c-.098-.098-.148-.246-.197-.345l.098-.098-.049-.098c-.098.049-.148.098-.246.148s-.148.098-.246.148c.049.197.197.837.197.985-.148-.098-.64-.542-.788-.64-.098.049-.148.098-.246.148s-.148.098-.246.148l.049.098.098-.049.098.148c.098.148.394.689.443.837v.098l.049.098c.049-.049.148-.098.197-.148s.148-.098.197-.098l-.049-.098-.098.049c-.049-.098-.148-.197-.197-.295l-.098-.197c-.098-.148-.148-.295-.197-.345.492.443.788.64.886.738l.197-.098-.246-1.182c.049.049.098.197.197.345l.098.197c.098.148.148.246.148.345l-.098.098.049.098c.098-.049.148-.098.246-.148l.295-.148v-.148l-.148.049zm1.329-.984c-.098-.098-.148-.148-.246-.295l-.197-.197c-.098-.098-.148-.197-.246-.295 0-.049.049-.098.098-.098.148-.098.246-.098.345 0s.098.246 0 .345c-.049 0-.049.049-.098.049l.049.148c.049-.049.098-.098.197-.098.295-.246.295-.542.148-.738s-.394-.197-.591 0l-.197.197c-.099.099-.148.148-.246.197-.049.049-.148.098-.246.197l.049.049.098-.049c.098.098.148.148.246.295l.246.295c.098.098.148.197.246.295l-.098.098.049.049c.098-.049.148-.148.246-.197s.148-.148.295-.246l.049-.098-.197.098zm2.314-2.117l.049.049c-.098.049-.148.148-.246.197l-.246.246-.049-.049.049-.098c-.098-.049-.246-.148-.345-.197l-.295.295.197.345.098-.049.049.049-.197.197-.148.148-.049-.049.098-.049c-.098-.246-.394-.837-.542-1.182.049-.098.098-.197.148-.246l.098-.049.492.246c.246.098.591.246.689.295l.148-.098zm-.936.098l-.492-.246.246.492.246-.246zm2.413-1.969l.049.049c-.098.098-.148.246-.246.345h-.788l-.049.098.098.098c.098.098.197.148.295.197l.098-.098.049.049c-.049.098-.148.148-.197.246s-.148.197-.197.246l-.049-.049.049-.098c-.098-.098-.148-.148-.295-.246l-.295-.246a1.034 1.034 0 0 0-.295-.197l-.098.049-.049-.049c.049-.049.098-.148.148-.197s.098-.148.148-.246a.851.851 0 0 1 .197-.246c.246-.295.443-.295.591-.197s.148.295.049.492c.148 0 .64-.049.738-.049l.049.049zm-1.083-.098c-.098-.098-.197-.049-.295.098-.049.049-.098.098-.098.148.049.049.148.098.197.197l.098.049c.049 0 .049-.049.098-.098.098-.148.148-.295 0-.394zm2.067-1.231c-.246.443-.64.542-1.034.345-.345-.197-.492-.64-.197-1.034.246-.443.64-.542 1.034-.345.345.197.443.591.197 1.034zm-.394-.739c-.246-.148-.542-.148-.64.098-.148.246 0 .492.246.64s.542.148.64-.098c.098-.246 0-.492-.246-.64zm-10.486 8.222c-.148 0-.295.148-.295.295s.148.295.295.295c.197 0 .295-.148.295-.295s-.148-.295-.295-.295zM3.495 20.185c.148 0 .295-.148.295-.295s-.148-.295-.295-.295c-.148 0-.295.148-.295.295s.148.295.295.295zm22.597 0c.148 0 .295-.148.295-.295s-.148-.295-.295-.295c-.148 0-.295.148-.295.295s.148.295.295.295z"/></symbol><symbol id="search-dark" viewBox="0 0 32 32"><path fill="#505050" d="M21.248 18.304l-2.688 2.688L29.312 32 32 29.312z"/><path fill="#505050" d="M12.8 3.84c4.992 0 8.96 3.968 8.96 8.96s-3.968 8.96-8.96 8.96-8.96-3.968-8.96-8.96 3.968-8.96 8.96-8.96zm0-3.84C5.76 0 0 5.76 0 12.8s5.76 12.8 12.8 12.8 12.8-5.76 12.8-12.8S19.84 0 12.8 0z"/></symbol><symbol id="search-light" viewBox="0 0 32 32"><path fill="#fff" d="M21.248 18.304l-2.688 2.688L29.312 32 32 29.312z"/><path fill="#fff" d="M12.8 3.84c4.992 0 8.96 3.968 8.96 8.96s-3.968 8.96-8.96 8.96-8.96-3.968-8.96-8.96 3.968-8.96 8.96-8.96zm0-3.84C5.76 0 0 5.76 0 12.8s5.76 12.8 12.8 12.8 12.8-5.76 12.8-12.8S19.84 0 12.8 0z"/></symbol><symbol id="twitter" viewBox="0 0 32 32"><path fill="#505050" d="M27.636 0H3.927A3.91 3.91 0 0 0 0 3.927v24.145a3.91 3.91 0 0 0 3.927 3.927h23.709a3.91 3.91 0 0 0 3.927-3.927V3.927C31.563 1.745 29.672 0 27.636 0zm-2.909 11.345v.582c0 6.255-4.655 13.382-13.091 13.382-2.618 0-5.091-.727-7.127-2.182h1.164c2.182 0 4.218-.727 5.673-2.036-2.036 0-3.782-1.455-4.364-3.2.291 0 .582.145.873.145.436 0 .873 0 1.164-.145-2.036-.436-3.636-2.327-3.636-4.655.582.291 1.309.582 2.036.582-1.164-.873-2.036-2.327-2.036-3.927 0-.873.291-1.6.582-2.327 2.327 2.909 5.673 4.655 9.6 4.945-.145-.291-.145-.727-.145-1.018 0-2.618 2.036-4.655 4.655-4.655 1.309 0 2.473.582 3.345 1.455 1.018-.145 2.036-.582 2.909-1.164-.291 1.164-1.018 2.036-2.036 2.618a13.714 13.714 0 0 0 2.618-.727c-.582.873-1.309 1.6-2.182 2.327z"/></symbol><symbol id="vimeo" viewBox="0 0 32 32">
<title>vimeo2</title>
<path fill="#505050" d="M29 0h-26c-1.65 0-3 1.35-3 3v26c0 1.65 1.35 3 3 3h26c1.65 0 3-1.35 3-3v-26c0-1.65-1.35-3-3-3zM26.925 10.625c-0.1 2.25-1.675 5.331-4.719 9.244-3.144 4.087-5.806 6.131-7.981 6.131-1.35 0-2.488-1.244-3.419-3.731-0.625-2.281-1.244-4.563-1.869-6.844-0.688-2.488-1.431-3.731-2.225-3.731-0.175 0-0.781 0.363-1.813 1.088l-1.087-1.4c1.144-1 2.269-2.006 3.375-3.006 1.525-1.313 2.662-2.006 3.425-2.075 1.8-0.175 2.906 1.056 3.325 3.687 0.45 2.844 0.762 4.606 0.938 5.3 0.519 2.356 1.088 3.531 1.712 3.531 0.481 0 1.212-0.762 2.181-2.294s1.488-2.694 1.556-3.494c0.137-1.319-0.381-1.981-1.556-1.981-0.556 0-1.125 0.125-1.712 0.381 1.137-3.719 3.306-5.531 6.512-5.425 2.375 0.069 3.494 1.606 3.356 4.619z"/>
</symbol></svg>